1,1,1
256,0,6
256,1,1
256,2,23
256,3,5
257,0,5676
257,1,56376
257,2,5676
257,3,35834
258,0,15
258,1,13
258,2,21
258,3,31
259,0,101
259,1,11
259,2,21
259,3,51
260,0,13
260,1,11
260,2,2
260,3,5
261,0,87238888800,1200000000,4000,3000,3,0
261,1,320000000,1240000000,0,0,0,0
261,2,328900000,1175555500,0,0,0,0
261,3,39651267297,3118307296,0,0,0,0
261,4,3400100000,1180000000,0,0,0,0
261,5,320000000,1170000000,1111,11111,0,0
261,6,240000000,1100000000,22222,22222,0,0
261,7,23000023000,1060000000,0,0,22,0
261,8,216876900,1089859000,0,0,11,0
261,9,0,0,1111,1111,0,1
261,10,878888800,1183222780,4000,3000,3,0
261,11,320000000,971564540,0,0,0,0
261,12,328900000,1158778280,0,0,0,0
261,13,3965167297,3118303196,0,0,0,1
261,14,3430000000,1179934460,0,0,0,0
261,15,320000000,1170000000,1111,11111,0,0
261,16,239999740,1100000000,22222,22222,0,0
261,17,230000000,791564540,0,0,22,0
261,18,216876900,1089859000,0,0,11,0
261,19,327851420,1175625130,1111,1111,0,0
261,20,877774419,1182174210,4000,3000,3,0
261,21,320000000,1222174210,0,0,0,0
261,22,336240049,1175555500,0,0,0,0
261,23,3965101766,3099432926,0,0,0,0
261,24,322108670,893738750,0,0,0,0
261,25,305254400,1135331460,1111,11111,0,0
261,26,237906939,579906300,22222,22222,0,0
261,27,229930100,1058947580,0,0,22,0
261,28,215627620,3473556806,0,0,11,0
261,29,236853760,319859460,1111,1111,0,0
261,30,861062740,1166380030,4000,3000,3,0
