256,0,6
256,1,1
256,2,2
256,3,3
257,0,5676
257,1,5676
257,2,5676
257,3,358
258,0,15
258,1,1
258,2,2
258,3,3
259,0,10
259,1,1
259,2,2
259,3,5
260,0,13
260,1,1
260,2,2
260,3,5
261,0,878888800,1200000000,4000,3000,3,0
261,1,320000000,1240000000,0,0,0,0
261,2,328900000,1175555500,0,0,0,0
261,3,3965167297,3118307296,0,0,0,0
261,4,340000000,1180000000,0,0,0,0
261,5,320000000,1170000000,1111,11111,0,0
261,6,240000000,1100000000,22222,22222,0,0
261,7,230000000,1060000000,0,0,22,0
261,8,216876900,1089859000,0,0,11,0
261,9,0,0,1111,1111,0,1
261,10,878888800,1183222780,4000,3000,3,0
261,11,320000000,971564540,0,0,0,0
261,12,328900000,1158778280,0,0,0,0
261,13,3965167297,3118303196,0,0,0,1
261,14,340000000,1179934460,0,0,0,0
261,15,320000000,1170000000,1111,11111,0,0
261,16,239999740,1100000000,22222,22222,0,0
261,17,230000000,791564540,0,0,22,0
261,18,216876900,1089859000,0,0,11,0
261,19,327851420,1175625130,1111,1111,0,0
261,20,877774419,1182174210,4000,3000,3,0
261,21,320000000,1222174210,0,0,0,0
261,22,336240049,1175555500,0,0,0,0
261,23,3965101766,3099432926,0,0,0,0
261,24,322108670,893738750,0,0,0,0
261,25,305254400,1135331460,1111,11111,0,0
261,26,237906939,579906300,22222,22222,0,0
261,27,229930100,1058947580,0,0,22,0
261,28,215627620,3473556806,0,0,11,0
261,29,236853760,319859460,1111,1111,0,0
261,30,861062740,1166380030,4000,3000,3,0
261,31,3974770686,3390708476,0,0,0,1
262,0,1
262,1,1
262,2,2
262,3,60
263,0,630
263,1,631
263,2,632
263,3,633
264,0,1
264,1,2
264,2,3
264,3,4
265,0,650
265,1,651
265,2,652
265,3,653
265,4,654
265,5,655
265,6,30
265,7,1
265,8,10
265,9,300
265,10,10
265,11,1800
265,12,12
265,13,13
265,14,14
265,15,30
265,16,16
265,17,17
265,18,18
265,19,19
265,20,20
265,21,5
265,22,45
265,23,23
265,24,24
265,25,25
265,26,26
265,27,27
265,28,28
265,29,300
265,30,600
265,31,31
265,32,32
265,33,33
265,34,34
265,35,180
265,36,36
265,37,160
265,38,38
265,39,39
265,40,40
265,41,5
265,42,42
265,43,43
265,44,44
265,45,45
265,46,46
265,47,47
265,48,48
265,49,49
265,50,50
265,51,51
265,52,52
265,53,53
265,54,54
265,55,55
265,56,56
265,57,57
265,58,58
265,59,59
265,60,60
265,61,61
265,62,62
265,63,63
266,0,6
266,1,1
266,2,2
266,3,3100
266,4,4
266,5,5
266,6,6
266,7,7
266,8,8
266,9,9
266,10,10
266,11,4194315
266,12,12
266,13,13
266,14,14
266,15,15
266,16,16
266,17,17
266,18,18
266,19,19
266,20,20
266,21,21
266,22,22
266,23,23
266,24,24
266,25,25
266,26,26
266,27,27
266,28,28
266,29,29
266,30,30
266,31,31
266,32,32
266,33,33
266,34,34
266,35,35
266,36,36
266,37,37
266,38,38
266,39,39
266,40,40
266,41,1
266,42,42
266,43,43
266,44,44
266,45,46
266,46,47
266,47,48
266,48,1
266,49,1
266,50,51
266,51,52
266,52,53
266,53,54
266,54,3550
266,55,56
266,56,57
266,57,58
266,58,59
266,59,60
266,60,61
266,61,62
266,62,63
266,63,64
267,0,1648
267,1,1649
267,2,1650
267,3,1651
268,0,104
268,1,1665
268,2,2
268,3,3
269,0,105
269,1,1
269,2,2
269,3,3
270,0,9
270,1,17
270,2,18
270,3,19
270,4,20
270,5,21
270,6,22
270,7,23
270,8,24
270,9,25
270,10,32
270,11,33
270,12,34
270,13,35
270,14,36
270,15,37
271,0,10
271,1,1
271,2,2
271,3,161
271,4,162
271,5,163
271,6,164
271,7,165
271,8,166
271,9,167
271,10,32
271,11,33
271,12,34
271,13,35
271,14,36
271,15,37
272,0,10
272,1,1
272,2,2
272,3,3
272,4,15
272,5,14
272,6,13
272,7,12
272,8,11
272,9,26
272,10,16
272,11,17
272,12,17
272,13,17
272,14,17
272,15,17
273,0,273
273,1,1
273,2,2
273,3,3
273,4,4
273,5,5
273,6,6
273,7,7
275,0,1200
275,1,1201
275,2,1202
275,3,1203
276,0,13000
276,1,97
276,2,98
276,3,99
277,0,770
277,1,771
277,2,772
277,3,773
278,0,241
278,1,1
278,2,2
278,3,3
279,0,224
279,1,101
279,2,102
279,3,103
279,4,104
279,5,105
279,6,106
279,7,107
279,8,108
279,9,109
279,10,110
279,11,111
279,12,112
279,13,113
279,14,114
279,15,115
279,16,116
279,17,117
279,18,118
279,19,119
279,20,120
279,21,121
279,22,122
279,23,123
279,24,124
279,25,125
279,26,126
279,27,127
279,28,128
279,29,129
279,30,130
279,31,131
279,32,132
279,33,133
279,34,134
279,35,135
279,36,136
279,37,137
279,38,138
279,39,139
279,40,140
279,41,141
279,42,142
279,43,143
279,44,144
279,45,145
279,46,146
279,47,147
279,48,148
279,49,149
279,50,150
279,51,151
279,52,152
279,53,153
279,54,154
279,55,155
279,56,156
279,57,157
279,58,158
279,59,159
279,60,160
279,61,161
279,62,162
279,63,163
280,0,2
280,1,3
280,2,2
280,3,6
280,4,4
280,5,5
280,6,6
280,7,7
280,8,8
280,9,9
280,10,10
280,11,11
280,12,12
280,13,13
280,14,14
280,15,15
280,16,16
280,17,17
280,18,18
280,19,19
280,20,20
280,21,21
280,22,22
280,23,23
280,24,24
280,25,25
280,26,26
280,27,27
280,28,28
280,29,29
280,30,30
280,31,31
280,32,32
280,33,33
280,34,34
280,35,35
280,36,36
280,37,37
280,38,38
280,39,39
280,40,40
280,41,41
280,42,42
280,43,43
280,44,44
280,45,45
280,46,46
280,47,47
280,48,1
280,49,2
280,50,3
280,51,4
280,52,5
280,53,53
280,54,9
280,55,55
280,56,56
280,57,57
280,58,58
280,59,59
280,60,60
280,61,61
280,62,62
280,63,63
281,0,129
281,1,1
281,2,2
281,3,3
281,4,4
281,5,5
281,6,6
281,7,7
282,0,128
282,1,129
282,2,130
282,3,131
282,4,132
282,5,133
282,6,134
282,7,135
283,0,1
283,1,129
283,2,2
283,3,3
283,4,4
283,5,5
283,6,6
283,7,7
284,0,132
284,1,1
284,2,2
284,3,3
284,4,4
284,5,5
284,6,6
284,7,7
285,0,133
285,1,1
285,2,2
285,3,3
285,4,4
285,5,5
285,6,6
285,7,7
286,0,0,4,129,48,132,16,16,128,0,0,0,1,12,1,2,3,8,19,2,8,128,0,140,129
286,1,4,129,48,132,16,16,128,0,0,0,1,12,1,2,3,8,19,2,8,128,0,140,129,0
286,2,1,5,1,3,1,1,0,0,0,1,12,1,2,3,8,19,2,8,128,0,140,129,0,0
286,3,0,0,4,129,48,132,16,16,128,0,0,0,0,0,0,0,0,0,0,0,0,0,0,0
286,4,1,5,1,3,1,1,0,0,0,0,0,0,0,0,0,0,0,0,72,19,8,65,1,8
286,5,0,0,0,0,0,0,4,129,48,132,16,16,128,0,0,0,0,0,0,0,0,140,129,0
286,6,4,129,48,132,16,16,128,0,0,0,1,12,1,2,3,8,19,2,8,128,0,140,129,0
287,0,46,1,52,4,24,5,0,0,0,0,0,0,0,0,0,0
287,1,42,4,55,14,55,253,182,10,94,2,0,0,0,0,0,0
287,2,54,7,118,254,34,12,0,0,0,0,0,0,0,0,0,0
287,3,254,34,54,7,118,254,34,12,0,0,0,0,0,0,0,0
287,4,254,34,40,253,62,6,57,4,68,8,0,0,0,0,0,0
287,5,254,34,40,253,62,6,57,4,68,8,0,0,0,0,0,0
287,6,94,2,40,253,62,6,57,4,68,8,0,0,0,0,0,0
287,7,46,1,52,4,24,5,0,0,0,0,0,0,0,0,0,0
287,8,46,1,52,4,24,5,0,0,0,0,0,0,0,0,0,0
287,9,42,4,55,14,55,253,182,10,94,2,0,0,0,0,0,0
287,10,54,7,118,254,34,12,0,0,0,0,0,0,0,0,0,0
287,11,254,34,54,7,118,254,34,12,0,0,0,0,0,0,0,0
287,12,254,34,40,253,62,6,57,4,68,8,0,0,0,0,0,0
287,13,254,34,40,253,62,6,57,4,68,8,0,0,0,0,0,0
287,14,94,2,40,253,62,6,57,4,68,8,0,0,0,0,0,0
287,15,46,1,52,4,24,5,0,0,0,0,0,0,0,0,0,0
287,16,54,7,118,254,34,12,0,0,0,0,0,0,0,0,0,0
287,17,254,18,54,7,118,254,34,12,0,0,0,0,0,0,0,0
287,18,254,33,40,253,62,6,57,4,52,8,0,0,0,0,0,0
287,19,254,34,24,253,62,6,57,4,67,8,0,0,0,0,0,0
287,20,94,2,39,253,62,6,57,4,52,7,0,0,0,0,0,0
287,21,46,1,52,4,24,5,0,0,0,0,0,0,0,0,0,0
287,22,254,18,56,253,46,5,56,4,52,8,0,0,0,0,0,0
287,23,234,18,49,127,211,224,99,147,36,8,0,0,0,0,0,0
287,24,94,2,40,253,62,6,57,4,68,8,0,0,0,0,0,0
287,25,30,2,52,3,40,4,0,0,0,0,0,0,0,0,0,0
287,26,37,6,86,235,18,12,0,0,0,0,0,0,0,0,0,0
287,27,254,18,54,7,118,254,34,12,0,0,0,0,0,0,0,0
287,28,235,33,40,253,46,5,57,4,52,8,0,0,0,0,0,0
287,29,234,18,24,253,46,6,41,4,67,8,0,0,0,0,0,0
287,30,78,1,39,253,62,5,57,4,52,7,0,0,0,0,0,0
287,31,46,1,68,4,24,4,0,0,0,0,0,0,0,0,0,0
288,0,2880
288,1,2881
288,2,2882
288,3,2883
288,4,2884
288,5,2885
288,6,2886
288,7,2887
289,0,9
289,1,1
289,2,2
289,3,3
289,4,4
289,5,5
289,6,6
289,7,7
290,0,144
290,1,161
290,2,162
290,3,163
290,4,164
290,5,165
290,6,166
290,7,167
291,0,91
292,0,92
293,0,93
294,0,94
295,0,95
296,0,96
297,0,0,0,0,0,3,202
297,1,0,0,0,0,3,203
297,2,0,0,0,0,3,204
297,3,0,0,0,0,3,205
297,4,0,0,0,0,3,206
297,5,0,0,0,0,3,207
297,6,0,0,0,0,3,208
297,7,0,0,0,0,3,209
297,8,0,0,0,0,3,210
297,9,0,0,0,0,3,211
297,10,0,0,0,0,3,212
297,11,0,0,0,0,3,213
297,12,0,0,0,0,3,214
297,13,0,0,0,0,3,215
297,14,0,0,0,0,3,216
297,15,0,0,0,0,3,217
297,16,0,0,0,0,3,218
297,17,0,0,0,0,3,219
297,18,0,0,0,0,3,220
297,19,0,0,0,0,3,221
297,20,0,0,0,0,3,222
297,21,0,0,0,0,3,223
297,22,0,0,0,0,3,192
297,23,0,0,0,0,3,193
297,24,0,0,0,0,3,194
297,25,0,0,0,0,3,195
297,26,0,0,0,0,3,196
297,27,0,0,0,0,3,197
297,28,0,0,0,0,3,198
297,29,0,0,0,0,3,199
297,30,0,0,0,0,3,200
297,31,0,0,0,0,3,201
298,0,161
298,1,1
298,2,2
298,3,3
298,4,4
298,5,5
298,6,6
298,7,7
298,8,8
298,9,9
298,10,16
298,11,17
298,12,18
298,13,19
298,14,20
298,15,21
298,16,22
298,17,23
298,18,24
298,19,25
298,20,32
298,21,33
298,22,34
298,23,35
298,24,36
298,25,37
298,26,38
298,27,39
298,28,40
298,29,41
298,30,42
298,31,43
299,0,10
299,1,11
299,2,12
299,3,13
299,4,14
299,5,15
299,6,16
299,7,17
299,8,18
299,9,19
299,10,20
299,11,21
299,12,22
299,13,23
299,14,24
299,15,25
299,16,26
299,17,27
299,18,28
299,19,29
299,20,30
299,21,31
299,22,32
299,23,33
299,24,34
299,25,35
299,26,36
299,27,37
299,28,38
299,29,39
299,30,40
299,31,42
512,0,48,0,166,5,79,0,166,6
512,1,48,0,53,241,79,1,38,5
512,2,48,0,53,241,79,3,38,6
512,3,48,0,53,240,79,0,0,0
512,4,48,0,53,242,79,2,38,10
512,5,48,0,41,3,79,97,38,7
512,6,48,0,169,3,79,96,230,7
512,7,48,0,169,3,79,224,230,7
512,8,48,0,41,1,31,0,0,0
512,9,48,0,41,3,32,0,0,0
512,10,48,0,41,0,32,0,0,0
512,11,48,0,41,2,32,0,0,0
512,12,48,0,0,0,64,14,0,0
512,13,1,0,0,0,17,6,0,0
512,14,1,0,39,0,122,15,0,0
512,15,1,0,39,0,51,242,0,0
512,16,1,0,39,0,79,64,0,0
512,17,1,0,2,0,26,27,41,192
512,18,1,0,2,0,26,13,41,193
512,19,1,0,2,0,13,30,0,0
512,20,1,0,0,0,116,32,0,0
512,21,1,0,1,0,7,0,41,128
512,22,1,0,1,0,13,42,41,193
512,23,1,0,1,0,27,36,41,128
512,24,1,0,1,0,27,37,41,193
512,25,15,0,0,0,29,27,0,0
512,26,15,0,0,0,29,13,0,0
512,27,15,0,0,0,23,0,0,0
512,28,15,0,0,0,8,6,0,0
512,29,15,0,41,64,31,1,0,0
512,30,15,0,41,3,31,0,38,71
512,31,15,0,41,64,64,14,0,0
512,32,15,0,41,64,122,3,0,0
512,33,15,0,41,64,51,242,0,0
512,34,15,0,41,3,32,0,38,71
512,35,15,0,41,128,7,0,0,0
512,36,15,0,41,128,27,36,0,0
512,37,15,0,41,193,13,42,0,0
512,38,15,0,41,193,27,37,0,0
512,39,7,3,41,32,17,7,38,3
512,40,7,3,41,32,27,23,38,3
512,41,7,3,41,32,79,33,38,3
512,42,19,23,1,0,122,80,41,33
512,43,19,23,1,0,51,242,41,33
512,44,19,23,41,33,79,34,105,35
512,45,19,23,0,0,30,7,0,0
512,46,8,3,41,34,17,7,0,0
512,47,8,3,41,34,27,23,0,0
512,48,8,3,41,34,79,35,0,0
512,49,18,7,41,35,122,79,0,0
512,50,18,7,41,35,51,242,0,0
512,51,18,7,41,33,79,32,105,35
512,52,18,7,0,0,29,23,0,0
512,53,19,23,0,0,29,23,0,0
512,54,16,0,41,128,23,1,0,0
512,55,16,0,41,34,122,79,105,35
512,56,16,0,41,34,51,242,105,35
512,57,16,0,41,65,79,32,0,0
512,58,16,0,41,65,29,23,0,0
512,59,16,0,41,65,30,7,0,0
512,60,16,0,41,65,32,1,0,0
512,61,16,0,41,3,31,0,38,72
512,62,16,0,41,65,64,14,0,0
512,63,16,0,41,65,122,4,0,0
512,64,16,0,41,65,51,242,0,0
512,65,16,0,41,3,32,0,38,72
512,66,16,0,41,65,6,0,41,128
512,67,16,0,41,65,30,42,41,128
512,68,16,0,41,65,29,36,41,128
512,69,16,0,41,65,29,37,41,128
512,70,16,0,41,65,79,64,0,0
512,71,16,0,41,192,26,27,41,128
512,72,16,0,41,193,26,13,41,128
512,73,48,0,58,23,23,0,17,30
512,74,48,0,58,23,31,30,17,30
512,75,48,0,186,23,23,1,16,30
512,76,16,0,0,0,13,30,0,0
512,77,48,0,1,0,30,30,0,0
512,78,18,30,0,0,9,6,0,0
512,79,18,30,38,10,117,11,0,0
512,80,18,30,0,0,39,0,0,0
512,81,18,30,58,24,109,27,41,192
512,82,18,30,58,24,109,13,41,193
512,83,18,30,58,22,22,26,0,0
512,84,2,0,2,0,13,29,0,0
512,85,48,0,1,0,30,29,0,0
512,86,18,29,38,10,117,11,0,0
512,87,18,29,0,0,39,0,0,0
512,88,18,29,58,24,109,27,41,192
512,89,18,29,58,24,109,13,41,193
512,90,18,29,58,22,22,26,0,0
512,91,48,0,169,128,30,24,65,0
512,92,48,0,169,128,30,28,65,0
512,93,48,0,38,12,31,40,38,13
512,94,48,0,166,12,32,40,230,13
512,95,25,0,58,31,17,24,38,12
512,96,19,27,2,0,17,28,38,12
512,97,25,0,58,30,17,24,38,12
512,98,19,13,2,0,17,28,38,12
512,99,25,0,58,31,31,35,38,12
512,100,19,27,2,0,31,35,38,12
512,101,25,0,58,30,31,35,38,12
512,102,19,13,2,0,31,35,38,12
512,103,15,0,0,0,32,35,0,0
512,104,18,28,38,12,122,6,17,40
512,105,18,28,38,12,51,242,17,40
512,106,18,28,38,12,32,35,17,40
512,107,18,28,16,36,122,6,16,40
512,108,18,28,16,36,51,242,16,40
512,109,18,28,0,0,23,1,0,0
512,110,18,28,16,36,32,35,16,40
512,111,18,28,16,36,32,36,16,40
512,112,18,28,0,0,13,29,0,0
512,113,18,28,0,0,19,27,0,0
512,114,18,28,0,0,19,13,0,0
512,115,18,24,38,12,122,6,17,40
512,116,18,24,38,12,51,242,17,40
512,117,18,24,38,12,32,35,17,40
512,118,18,24,16,36,122,6,16,40
512,119,18,24,16,36,51,242,16,40
512,120,18,24,0,0,23,1,0,0
512,121,18,24,16,36,32,35,16,40
512,122,18,24,16,36,32,36,16,40
512,123,18,24,0,0,13,29,0,0
512,124,48,0,11,24,30,28,0,0
512,125,18,24,0,0,19,27,0,0
512,126,18,24,0,0,19,13,0,0
512,127,76,0,2,0,27,12,38,13
512,128,15,0,0,0,29,12,0,0
512,129,19,12,38,13,31,36,2,0
512,130,15,0,0,0,32,36,0,0
512,131,19,12,38,13,17,10,41,128
512,132,18,10,38,13,122,6,17,40
512,133,18,10,38,13,51,242,17,40
512,134,18,10,38,13,32,36,17,40
512,135,18,10,0,0,13,29,0,0
512,136,19,12,0,0,19,12,0,0
512,137,2,0,2,0,17,22,0,0
512,138,74,26,12,22,17,27,2,0
512,139,48,0,1,0,30,27,0,0
512,140,74,26,11,22,17,23,2,0
512,141,48,0,1,0,30,23,0,0
512,142,18,27,38,14,122,84,0,0
512,143,18,27,38,14,51,242,0,0
512,144,18,27,2,0,23,1,0,0
512,145,18,27,2,0,13,29,0,0
512,146,18,23,38,14,122,84,0,0
512,147,18,23,38,14,51,242,0,0
512,148,18,23,2,0,23,1,0,0
512,149,18,23,2,0,13,29,0,0
512,150,48,0,11,23,30,27,0,0
512,151,18,5,1,0,32,42,38,4
512,152,15,0,0,0,19,22,0,0
512,153,8,3,1,0,13,5,38,0
512,154,8,3,1,0,27,22,38,0
512,155,15,0,4,0,13,5,38,0
512,156,15,0,4,0,27,22,38,0
512,157,18,5,17,42,122,65,38,0
512,158,18,5,17,42,51,242,38,0
512,159,18,5,1,0,31,42,166,4
512,160,19,22,1,0,30,5,0,0
512,161,16,0,0,0,30,5,0,0
512,162,19,22,1,0,29,22,0,0
512,163,16,0,0,0,29,22,0,0
512,164,19,22,1,0,32,42,0,0
512,165,16,0,0,0,32,42,0,0
512,166,7,0,58,26,122,58,17,41
512,167,7,0,58,26,51,242,17,41
512,168,7,0,58,26,46,20,17,41
512,169,7,0,58,26,31,41,17,41
512,170,48,0,186,23,32,30,16,30
512,171,8,1,58,26,122,77,16,41
512,172,8,1,58,26,51,242,16,41
512,173,8,1,58,26,29,20,16,41
512,174,8,1,58,26,32,41,16,41
512,175,75,0,0,0,19,24,0,0
512,176,15,0,0,0,19,24,0,0
512,177,75,0,0,0,27,24,0,0
512,178,19,24,41,97,31,0,41,224
512,179,19,24,41,97,64,14,41,224
512,180,19,24,41,97,122,27,41,224
512,181,19,24,41,97,51,242,41,224
512,182,19,24,41,97,32,0,41,224
512,183,19,24,0,0,19,24,0,0
512,184,16,0,0,0,19,24,0,0
512,185,19,24,41,97,79,225,166,79
512,186,3,0,16,16,8,0,0,0
512,187,3,0,16,61,8,1,0,0
512,188,3,0,16,62,8,3,0,0
512,189,3,0,16,63,8,4,0,0
512,190,18,27,38,14,117,26,0,0
512,191,18,23,38,14,117,26,0,0
512,192,55,0,41,3,31,0,38,8
512,193,55,0,41,3,64,14,38,8
512,194,55,0,0,0,122,1,0,0
512,195,55,0,0,0,51,242,0,0
512,196,55,0,41,3,32,0,38,8
512,197,56,0,41,3,31,0,38,9
512,198,56,0,41,3,64,14,38,9
512,199,56,0,0,0,122,2,0,0
512,200,56,0,0,0,51,242,0,0
512,201,56,0,41,3,32,0,38,9
512,202,15,0,38,15,31,27,41,64
512,203,15,0,16,27,79,162,166,16
512,204,15,0,16,27,79,161,38,16
512,205,15,0,16,27,12,0,0,0
512,206,15,0,16,27,17,8,0,0
512,207,18,8,0,0,9,0,0,0
512,208,18,8,41,162,122,75,0,0
512,209,18,8,41,162,51,242,0,0
512,210,18,8,41,161,122,76,0,0
512,211,18,8,41,161,51,242,0,0
512,212,18,8,41,161,8,0,0,0
512,213,18,8,41,161,31,16,0,0
512,214,5,1,38,15,9,0,0,0
512,215,5,1,38,15,32,16,0,0
512,216,5,1,0,0,30,8,0,0
512,217,5,1,41,161,31,25,0,0
512,218,5,1,41,162,31,26,0,0
512,219,5,1,16,25,122,75,0,0
512,220,5,1,16,25,51,242,0,0
512,221,5,1,16,25,79,162,0,0
512,222,5,1,16,25,32,25,0,0
512,223,5,1,16,26,122,76,0,0
512,224,5,1,16,26,51,242,0,0
512,225,5,1,16,26,8,0,0,0
512,226,5,1,16,26,31,16,0,0
512,227,5,1,16,26,79,161,0,0
512,228,5,1,16,26,32,26,0,0
512,229,16,0,38,15,9,0,0,0
512,230,16,0,38,15,32,16,0,0
512,231,16,0,0,0,79,160,0,0
512,232,15,0,0,0,32,27,0,0
512,233,18,8,0,0,39,0,0,0
512,234,5,1,38,15,39,0,0,0
512,235,16,0,38,15,39,0,0,0
512,236,1,0,38,14,117,26,182,26
512,237,48,0,0,0,0,0,0,0
512,238,48,1,0,0,0,0,0,0
512,239,48,2,0,0,0,0,0,0
512,240,48,3,0,0,0,0,0,0
512,241,48,4,0,0,53,0,0,0
512,242,48,0,1,0,0,0,41,193
512,243,48,0,0,0,30,23,0,0
512,244,48,0,0,0,30,27,0,0
512,245,48,0,38,14,0,0,0,0
512,246,48,0,0,0,19,17,0,0
512,247,48,0,0,0,19,36,0,0
512,248,48,0,0,0,0,0,0,0
512,249,48,0,0,0,52,0,0,0
513,0,19,1,0,0,103,31,0,0
513,1,47,0,0,0,103,15,0,0
513,2,19,1,0,0,103,31,0,0
513,3,47,1,0,0,103,31,0,0
513,4,18,1,153,0,32,2,152,0
513,5,18,1,152,0,30,1,0,0
513,6,19,0,38,55,31,2,1,0
513,7,19,0,38,55,64,14,1,0
513,8,19,0,38,55,122,9,1,0
513,9,19,0,38,55,51,242,1,0
513,10,19,0,38,56,31,2,2,0
513,11,19,0,38,56,64,14,2,0
513,12,19,0,38,56,122,9,2,0
513,13,19,0,38,56,51,242,2,0
513,14,19,0,38,57,31,2,0,0
513,15,19,0,38,57,64,14,0,0
513,16,19,0,38,57,122,9,0,0
513,17,19,0,38,57,51,242,0,0
513,18,19,0,16,2,32,2,166,59
513,19,19,0,16,2,13,1,38,59
513,20,18,1,16,2,103,15,38,59
513,21,18,1,16,2,122,9,38,59
513,22,18,1,16,2,51,242,38,59
513,23,18,2,153,0,32,2,152,0
513,24,18,2,153,0,30,2,0,0
513,25,47,0,38,65,31,2,1,0
513,26,47,0,38,65,64,14,1,0
513,27,47,0,38,65,122,10,1,0
513,28,47,0,38,65,51,242,1,0
513,29,47,0,38,66,31,2,2,0
513,30,47,0,38,66,64,14,2,0
513,31,47,0,38,66,122,10,2,0
513,32,47,0,38,66,51,242,2,0
513,33,47,0,38,67,31,2,0,0
513,34,47,0,38,67,64,14,0,0
513,35,47,0,38,67,122,10,0,0
513,36,47,0,38,67,51,242,0,0
513,37,47,0,16,2,32,2,166,58
513,38,47,0,16,2,13,2,38,58
513,39,18,2,16,2,103,15,38,58
513,40,18,2,16,2,122,10,38,58
513,41,18,2,16,2,51,242,38,58
513,42,18,3,153,1,32,3,152,1
513,43,18,3,152,1,30,3,0,0
513,44,19,1,38,60,31,3,1,0
513,45,19,1,38,60,64,14,1,0
513,46,19,1,38,60,122,9,1,0
513,47,19,1,38,60,51,242,1,0
513,48,19,1,38,61,31,3,2,0
513,49,19,1,38,61,64,14,2,0
513,50,19,1,38,61,122,9,2,0
513,51,19,1,38,61,51,242,2,0
513,52,19,1,38,62,31,3,0,0
513,53,19,1,38,62,64,14,0,0
513,54,19,1,38,62,122,9,0,0
513,55,19,1,38,62,51,242,0,0
513,56,19,1,16,3,32,3,166,64
513,57,19,1,16,3,13,3,38,64
513,58,18,3,16,3,103,31,38,64
513,59,18,3,16,3,122,9,38,64
513,60,18,3,16,3,51,242,38,64
513,61,18,4,153,1,32,3,152,1
513,62,18,4,153,1,30,4,0,0
513,63,47,1,38,68,31,3,1,0
513,64,47,1,38,68,64,14,1,0
513,65,47,1,38,68,122,10,1,0
513,66,47,1,38,68,51,242,1,0
513,67,47,1,38,69,31,3,2,0
513,68,47,1,38,69,64,14,2,0
513,69,47,1,38,69,122,10,2,0
513,70,47,1,38,69,51,242,2,0
513,71,47,1,38,70,31,3,0,0
513,72,47,1,38,70,64,14,0,0
513,73,47,1,38,70,122,10,0,0
513,74,47,1,38,70,51,242,0,0
513,75,47,1,16,3,32,3,166,63
513,76,47,1,16,3,13,4,38,63
513,77,18,4,16,3,103,31,38,63
513,78,18,4,16,3,122,10,38,63
513,79,18,4,16,3,51,242,38,63
513,80,4,1,38,18,122,131,1,0
513,81,4,1,38,18,51,242,1,0
513,82,4,1,38,19,122,131,2,0
513,83,4,1,38,19,51,242,2,0
513,84,4,1,38,20,122,131,0,0
513,85,4,1,38,20,51,242,0,0
513,86,5,1,38,21,122,121,1,0
513,87,5,1,38,21,51,242,1,0
513,88,5,1,38,22,122,121,2,0
513,89,5,1,38,22,51,242,2,0
513,90,5,1,38,23,122,121,0,0
513,91,5,1,38,23,51,242,0,0
513,92,4,2,38,24,122,132,1,0
513,93,4,2,38,24,51,242,1,0
513,94,4,2,38,25,122,132,2,0
513,95,4,2,38,25,51,242,2,0
513,96,4,2,38,26,122,132,0,0
513,97,4,2,38,26,51,242,0,0
513,98,5,2,38,27,122,122,1,0
513,99,5,2,38,27,51,242,1,0
513,100,5,2,38,28,122,122,2,0
513,101,5,2,38,28,51,242,2,0
513,102,5,2,38,29,122,122,0,0
513,103,5,2,38,29,51,242,0,0
513,104,4,3,38,30,122,133,1,0
513,105,4,3,38,30,51,242,1,0
513,106,4,3,38,31,122,133,2,0
513,107,4,3,38,31,51,242,2,0
513,108,4,3,38,32,122,133,0,0
513,109,4,3,38,32,51,242,0,0
513,110,5,3,38,33,122,123,1,0
513,111,5,3,38,33,51,242,1,0
513,112,5,3,38,34,122,123,2,0
513,113,5,3,38,34,51,242,2,0
513,114,5,3,38,35,122,123,0,0
513,115,5,3,38,35,51,242,0,0
513,116,4,4,38,36,122,134,1,0
513,117,4,4,38,36,51,242,1,0
513,118,4,4,38,37,122,134,2,0
513,119,4,4,38,37,51,242,2,0
513,120,4,4,38,38,122,134,0,0
513,121,4,4,38,38,51,242,0,0
513,122,5,4,38,39,122,124,1,0
513,123,5,4,38,39,51,242,1,0
513,124,5,4,38,40,122,124,2,0
513,125,5,4,38,40,51,242,2,0
513,126,5,4,38,41,122,124,0,0
513,127,5,4,38,41,51,242,0,0
513,128,4,5,38,43,122,135,1,0
513,129,4,5,38,43,51,242,1,0
513,130,4,5,38,44,122,135,2,0
513,131,4,5,38,44,51,242,2,0
513,132,4,5,38,45,122,135,0,0
513,133,4,5,38,45,51,242,0,0
513,134,5,5,38,46,122,125,1,0
513,135,5,5,38,46,51,242,1,0
513,136,5,5,38,47,122,125,2,0
513,137,5,5,38,47,51,242,2,0
513,138,5,5,38,48,122,125,0,0
513,139,5,5,38,48,51,242,0,0
513,140,4,6,38,49,122,136,1,0
513,141,4,6,38,49,51,242,1,0
513,142,4,6,38,50,122,136,2,0
513,143,4,6,38,50,51,242,2,0
513,144,4,6,38,51,122,136,0,0
513,145,4,6,38,51,51,242,0,0
513,146,5,6,38,52,122,126,1,0
513,147,5,6,38,52,51,242,1,0
513,148,5,6,38,53,122,126,2,0
513,149,5,6,38,53,51,242,2,0
513,150,5,6,38,54,122,126,0,0
513,151,5,6,38,54,51,242,0,0
513,152,76,0,38,42,122,60,0,0
513,153,76,0,38,42,51,242,0,0
513,154,76,0,38,42,27,36,41,192
513,155,76,0,38,42,7,0,41,192
513,156,76,0,38,42,27,37,41,193
513,157,76,0,38,42,13,42,41,193
513,158,18,42,38,42,122,60,2,0
513,159,18,42,38,42,19,37,2,0
513,160,17,0,38,42,122,60,2,0
513,161,17,0,38,42,51,242,2,0
513,162,19,36,38,42,122,60,2,0
513,163,19,36,38,42,51,242,2,0
513,164,19,37,38,42,122,60,2,0
513,165,19,37,38,42,13,42,2,0
513,166,76,0,38,42,23,0,0,0
513,167,76,0,38,42,17,11,0,0
513,168,19,37,38,42,17,11,2,0
513,169,19,36,38,42,17,11,2,0
513,170,18,11,2,0,23,1,0,0
513,171,18,11,2,0,13,29,0,0
513,172,76,0,38,2,31,5,41,128
513,173,76,0,38,2,64,14,41,128
513,174,76,0,38,2,122,59,41,128
513,175,76,0,38,2,51,242,41,128
513,176,76,0,38,2,23,0,41,128
513,177,76,0,38,2,7,0,41,192
513,178,76,0,38,2,27,36,41,192
513,179,76,0,38,2,13,42,41,193
513,180,76,0,38,2,27,37,41,193
513,181,76,0,38,2,79,129,41,128
513,182,76,0,38,2,39,0,0,0
513,183,15,0,0,0,19,53,0,0
513,184,18,46,0,0,19,53,0,0
513,185,4,8,2,0,17,46,12,46
513,186,4,8,2,0,23,0,38,2
513,187,48,0,1,0,30,46,233,128
513,188,48,0,1,0,19,53,233,128
513,189,4,8,11,46,18,53,38,2
513,190,19,53,38,2,31,5,41,128
513,191,19,53,38,2,64,14,41,128
513,192,19,53,38,2,122,59,41,128
513,193,19,53,38,2,51,242,41,128
513,194,19,53,38,2,7,0,41,192
513,195,19,53,38,2,27,36,41,192
513,196,19,53,38,2,13,42,41,193
513,197,19,53,38,2,27,37,41,193
513,198,19,53,38,2,79,129,41,128
513,199,19,53,0,0,30,46,0,0
513,200,18,46,2,0,23,1,41,128
513,201,48,0,18,0,17,54,12,54
513,202,29,0,11,54,30,54,0,0
513,203,18,54,0,0,55,0,0,0
513,204,3,0,0,0,110,1,0,0
513,205,4,10,38,2,31,6,41,128
513,206,4,10,38,2,64,14,41,128
513,207,4,10,38,2,122,59,41,128
513,208,4,10,38,2,51,242,41,128
513,209,4,10,38,2,23,0,41,128
513,210,4,10,38,2,7,0,41,192
513,211,4,10,38,2,27,36,41,192
513,212,4,10,38,2,13,42,41,193
513,213,4,10,38,2,27,37,41,193
513,214,4,10,38,2,79,129,41,128
513,215,4,10,38,2,39,0,0,0
513,216,37,56,41,129,122,56,0,0
513,217,37,56,41,129,51,242,0,0
513,218,37,56,41,129,6,0,0,0
513,219,37,56,41,129,29,36,0,0
513,220,37,56,41,129,30,42,0,0
513,221,37,56,41,129,29,37,0,0
513,222,37,56,41,129,13,45,0,0
513,223,37,56,41,129,79,130,0,0
513,224,37,56,0,0,39,0,0,0
513,225,18,45,41,130,122,129,0,0
513,226,18,45,41,130,51,242,0,0
513,227,37,57,41,129,32,5,105,130
513,228,37,57,41,129,32,6,105,130
513,229,37,57,41,129,64,14,105,130
513,230,37,57,41,129,122,57,105,130
513,231,37,57,41,129,51,242,105,130
513,232,37,57,41,129,30,45,105,130
513,233,37,57,1,0,7,0,41,192
513,234,37,57,1,0,27,36,41,192
513,235,37,57,1,0,13,42,41,193
513,236,37,57,1,0,27,37,41,193
513,237,37,57,2,0,23,1,0,0
513,238,37,57,2,0,13,29,0,0
513,239,37,57,41,129,79,128,105,130
513,240,37,57,0,0,39,0,0,0
513,241,48,0,0,0,53,0,0,0
513,242,48,0,1,0,0,0,41,193
513,243,48,0,0,0,30,23,0,0
513,244,48,0,0,0,30,27,0,0
513,245,48,0,38,14,0,0,0,0
513,246,48,0,0,0,19,17,0,0
513,247,48,0,0,0,19,36,0,0
513,248,48,0,0,0,0,0,0,0
513,249,48,0,0,0,52,0,0,0
514,0,37,64,12,31,17,31,0,0
514,1,37,64,11,31,8,0,0,0
514,2,18,31,0,0,9,0,0,0
514,3,37,65,12,32,17,32,0,0
514,4,37,65,11,32,8,1,0,0
514,5,18,32,0,0,9,1,0,0
514,6,37,66,12,62,17,62,0,0
514,7,37,66,11,62,8,3,0,0
514,8,18,62,0,0,9,3,0,0
514,9,37,67,12,63,17,63,0,0
514,10,37,67,11,63,8,4,0,0
514,11,18,63,0,0,9,4,0,0
514,12,76,0,38,42,31,32,0,0
514,13,18,11,2,0,32,32,16,32
514,14,15,0,16,32,32,32,0,0
514,15,48,0,11,35,31,33,75,37
514,16,48,0,169,2,32,33,16,33
514,17,49,9,0,0,0,0,0,0
514,18,49,8,0,0,0,0,0,0
514,19,49,7,0,0,0,0,0,0
514,20,14,0,41,192,17,9,0,0
514,21,14,0,41,192,123,2,0,0
514,22,13,0,41,192,30,9,0,0
514,23,18,9,41,192,9,4,0,0
514,24,18,9,41,192,106,1,0,0
514,25,18,9,58,29,0,0,1,0
514,26,18,9,58,29,0,0,1,0
514,27,18,9,58,29,13,42,1,0
514,28,18,9,58,29,27,37,1,0
514,29,18,9,58,29,29,27,2,0
514,30,18,9,58,29,26,13,2,0
514,31,18,9,41,192,79,193,0,0
514,32,13,0,41,193,8,4,0,0
514,33,13,0,41,193,106,0,0,0
514,34,13,0,58,28,30,42,1,0
514,35,13,0,58,28,29,37,1,0
514,36,13,0,58,28,7,0,1,0
514,37,13,0,58,28,27,36,1,0
514,38,13,0,58,28,29,13,2,0
514,39,13,0,58,28,26,27,2,0
514,40,13,0,41,193,79,192,0,0
514,41,3,0,0,0,102,51,0,0
514,42,3,0,0,0,8,4,0,0
514,43,3,0,41,193,17,25,0,0
514,44,18,25,41,193,9,4,0,0
514,45,3,0,41,192,17,9,12,9
514,46,3,0,41,193,106,1,0,0
514,47,15,0,0,0,13,0,0,0
514,48,15,0,0,0,19,21,0,0
514,49,15,0,0,0,27,21,0,0
514,50,18,0,0,0,32,8,0,0
514,51,18,0,0,0,64,14,0,0
514,52,18,0,0,0,19,21,0,0
514,53,19,21,0,0,31,8,0,0
514,54,19,21,0,0,64,14,0,0
514,55,19,21,0,0,13,0,0,0
514,56,19,21,0,0,19,21,0,0
514,57,19,45,0,0,31,9,0,0
514,58,19,45,0,0,64,14,0,0
514,59,47,45,0,0,17,17,0,0
514,60,19,45,0,0,30,17,0,0
514,61,18,17,25,45,32,9,0,0
514,62,18,17,25,45,64,14,0,0
514,63,16,0,0,0,32,8,0,0
514,64,16,0,0,0,64,14,0,0
514,65,16,0,0,0,32,9,0,0
514,66,16,0,0,0,64,14,0,0
514,67,16,0,0,0,30,17,0,0
514,68,16,0,0,0,30,0,0,0
514,69,16,0,0,0,29,21,0,0
514,70,78,145,17,37,64,14,0,0
514,71,78,145,17,37,122,83,0,0
514,72,78,145,17,37,51,242,0,0
514,73,78,145,17,37,31,37,0,0
514,74,78,144,16,37,64,14,0,0
514,75,78,144,16,37,122,82,0,0
514,76,78,144,16,37,51,242,0,0
514,77,78,144,16,37,32,37,0,0
514,78,49,16,2,0,0,0,0,0
514,79,49,16,3,0,0,0,0,0
514,80,48,0,38,77,8,1,166,78
514,81,48,0,38,77,31,61,166,78
514,82,78,15,38,77,8,1,38,78
514,83,78,15,38,77,31,61,38,78
514,84,78,15,38,77,122,144,38,78
514,85,78,15,38,77,51,242,38,78
514,86,78,16,38,77,9,1,38,78
514,87,78,16,38,77,122,143,38,78
514,88,78,16,38,77,51,242,38,78
514,89,47,18,0,0,17,15,0,0
514,90,18,15,25,18,122,54,0,0
514,91,18,15,25,18,51,242,0,0
514,92,18,15,25,18,23,1,0,0
514,93,66,1,1,0,122,137,0,0
514,94,66,1,1,0,51,242,0,0
514,95,79,0,1,0,122,158,0,0
514,96,79,0,1,0,51,242,0,0
514,97,1,0,24,32,31,38,0,0
514,98,1,0,25,32,32,38,0,0
514,99,1,0,24,33,31,39,0,0
514,100,1,0,25,33,32,39,0,0
514,101,19,32,17,38,51,106,0,0
514,102,47,32,16,38,51,120,0,0
514,103,19,33,17,39,51,135,0,0
514,104,47,33,16,39,51,149,0,0
514,105,48,0,0,0,50,164,0,0
514,106,48,0,0,0,31,38,0,0
514,107,48,0,38,76,124,15,7,0
514,108,48,0,38,76,125,32,7,0
514,109,48,0,38,76,32,7,7,0
514,110,48,0,38,76,64,14,7,0
514,111,48,0,38,76,122,119,7,0
514,112,48,0,1,0,0,0,41,193
514,113,48,0,0,0,30,23,0,0
514,114,48,0,0,0,30,27,0,0
514,115,48,0,38,14,117,26,0,0
514,116,48,0,0,0,19,17,0,0
514,117,48,0,0,0,19,36,0,0
514,118,48,0,0,0,0,0,0,0
514,119,48,0,0,0,52,0,0,0
514,120,48,0,0,0,32,38,0,0
514,121,48,0,38,76,124,15,7,0
514,122,48,0,38,76,125,34,7,0
514,123,48,0,38,76,19,34,7,0
514,124,48,0,38,76,32,7,7,0
514,125,48,0,38,76,64,14,7,0
514,126,48,0,38,76,122,120,7,0
514,127,48,0,1,0,0,0,41,193
514,128,48,0,0,0,30,23,0,0
514,129,48,0,0,0,30,27,0,0
514,130,48,0,38,14,117,26,0,0
514,131,48,0,0,0,19,17,0,0
514,132,48,0,0,0,19,36,0,0
514,133,48,0,0,0,0,0,0,0
514,134,48,0,0,0,52,0,0,0
514,135,48,0,0,0,31,39,0,0
514,136,48,0,38,76,124,15,7,0
514,137,48,0,38,76,125,33,7,0
514,138,48,0,38,76,31,7,7,0
514,139,48,0,38,76,64,14,7,0
514,140,48,0,38,76,122,119,7,0
514,141,48,0,1,0,0,0,41,193
514,142,48,0,0,0,30,23,0,0
514,143,48,0,0,0,30,27,0,0
514,144,48,0,38,14,117,26,0,0
514,145,48,0,0,0,19,17,0,0
514,146,48,0,0,0,19,36,0,0
514,147,48,0,0,0,0,0,0,0
514,148,48,0,0,0,52,0,0,0
514,149,48,0,0,0,32,39,0,0
514,150,48,0,38,76,124,15,7,0
514,151,48,0,38,76,125,35,7,0
514,152,48,0,38,76,19,35,7,0
514,153,48,0,38,76,31,7,7,0
514,154,48,0,38,76,64,14,7,0
514,155,48,0,38,76,122,120,7,0
514,156,48,0,1,0,0,0,41,193
514,157,48,0,0,0,30,23,0,0
514,158,48,0,0,0,30,27,0,0
514,159,48,0,38,14,117,26,0,0
514,160,48,0,0,0,19,17,0,0
514,161,48,0,0,0,19,36,0,0
514,162,48,0,0,0,0,0,0,0
514,163,48,0,0,0,52,0,0,0
514,164,18,42,1,0,122,6,41,128
514,165,18,42,1,0,19,37,41,128
514,166,17,0,41,193,106,0,0,0
514,167,17,0,1,0,122,6,41,128
514,168,17,0,1,0,51,242,41,128
514,169,17,0,41,193,106,1,0,0
514,170,19,36,41,193,106,0,0,0
514,171,19,36,1,0,122,6,41,128
514,172,19,36,1,0,51,242,41,128
514,173,19,36,41,193,106,1,0,0
514,174,19,37,1,0,122,6,0,0
514,175,19,37,1,0,13,42,0,0
514,176,19,37,0,0,19,37,0,0
514,177,18,42,38,2,122,129,41,129
514,178,18,42,38,2,19,37,41,129
514,179,17,0,38,2,122,129,41,129
514,180,17,0,38,2,51,242,41,129
514,181,19,36,38,2,122,129,41,129
514,182,19,36,38,2,51,242,41,129
514,183,19,37,38,2,122,129,41,129
514,184,19,37,38,2,13,42,41,129
514,185,78,16,38,77,32,61,38,78
514,186,78,15,38,77,39,0,38,78
514,187,78,16,38,77,39,0,38,78
514,188,33,16,0,0,0,0,0,0
514,189,50,32,0,0,0,0,0,0
514,190,34,32,0,0,0,0,0,0
514,191,17,33,0,0,0,0,0,0
514,192,17,33,16,0,0,0,0,0
514,193,33,33,112,0,0,0,0,0
514,194,33,33,112,0,0,0,0,0
514,195,33,33,117,0,0,0,0,0
514,196,33,33,117,16,0,0,0,0
514,197,49,33,117,32,0,0,0,0
514,198,49,33,117,33,0,0,0,0
514,199,48,0,166,12,19,27,24,27
514,200,48,0,166,12,19,13,24,13
514,201,15,0,41,64,79,65,0,0
514,202,15,0,0,0,39,0,0,0
514,203,78,98,0,0,122,33,0,0
514,204,78,98,0,0,51,242,0,0
514,205,78,1,0,0,122,38,0,0
514,206,78,1,0,0,51,242,0,0
514,207,78,72,0,0,122,55,0,0
514,208,78,72,0,0,51,242,0,0
514,209,78,2,0,0,122,39,0,0
514,210,78,2,0,0,51,242,0,0
514,211,78,0,0,0,122,12,0,0
514,212,78,0,0,0,51,242,0,0
514,213,78,114,0,0,122,28,0,0
514,214,78,114,0,0,51,242,0,0
514,215,78,82,0,0,122,19,0,0
514,216,78,82,0,0,51,242,0,0
514,217,78,119,0,0,122,102,0,0
514,218,78,119,0,0,51,242,0,0
514,219,78,87,0,0,122,102,0,0
514,220,78,87,0,0,51,242,0,0
514,221,78,90,0,0,122,104,0,0
514,222,78,90,0,0,51,242,0,0
514,223,78,3,0,0,122,41,0,0
514,224,78,3,0,0,51,242,0,0
514,225,78,4,0,0,122,43,0,0
514,226,78,4,0,0,51,242,0,0
514,227,78,5,0,0,122,44,0,0
514,228,78,5,0,0,51,242,0,0
514,229,78,6,0,0,122,45,0,0
514,230,78,6,0,0,51,242,0,0
514,231,78,7,0,0,122,46,0,0
514,232,78,7,0,0,51,242,0,0
514,233,78,8,0,0,122,48,0,0
514,234,78,8,0,0,51,242,0,0
514,235,78,9,0,0,122,49,0,0
514,236,78,9,0,0,51,242,0,0
514,237,78,10,0,0,122,50,0,0
514,238,78,10,0,0,51,242,0,0
514,239,78,14,0,0,122,58,0,0
514,240,78,14,0,0,51,242,0,0
514,241,48,0,0,0,53,0,0,0
514,242,48,0,1,0,0,0,41,193
514,243,48,0,0,0,30,23,0,0
514,244,48,0,0,0,30,27,0,0
514,245,48,0,38,14,0,0,0,0
514,246,48,0,0,0,19,17,0,0
514,247,48,0,0,0,19,36,0,0
514,248,48,0,0,0,0,0,0,0
514,249,48,0,0,0,52,0,0,0
768,0,7680
768,1,16843009
768,2,7682
768,3,7683
769,0,20504
769,1,20501
769,2,20502
769,3,20503
770,0,10
770,1,1
770,2,2
770,3,3
770,4,4
770,5,5
770,6,6
770,7,7
771,0,30
771,1,30
771,2,120
771,3,121
771,4,122
771,5,113
772,0,11776
773,0,11777
774,0,20511
775,0,5
775,1,6
775,2,7
775,3,8
776,0,15
776,1,1
776,2,2
776,3,3
777,0,212992
777,1,2080768
777,2,214000
777,3,4026744832
778,0,10
778,1,1
779,0,17
779,1,33
779,2,33
779,3,17
779,4,17
779,5,17
779,6,32
779,7,17
779,8,17
779,9,17
779,10,33
779,11,33
779,12,65
779,13,17
779,14,17
779,15,17
779,16,17
779,17,17
779,18,17
779,19,65
779,20,17
779,21,17
779,22,17
779,23,17
779,24,17
779,25,17
779,26,17
779,27,17
779,28,65
779,29,17
779,30,17
779,31,17
779,32,17
779,33,65
779,34,17
779,35,17
779,36,17
779,37,17
779,38,65
779,39,65
779,40,17
779,41,65
779,42,17
779,43,65
779,44,65
779,45,65
779,46,65
779,47,17
779,48,65
779,49,65
779,50,65
779,51,17
779,52,17
779,53,17
779,54,33
779,55,65
779,56,17
779,57,17
779,58,33
779,59,17
779,60,17
779,61,17
779,62,17
779,63,17
779,64,17
779,65,17
779,66,17
779,67,17
779,68,17
779,69,17
779,70,17
779,71,17
779,72,17
779,73,17
779,74,17
779,75,17
779,76,17
779,77,33
779,78,17
779,79,17
779,80,17
779,81,17
779,82,65
779,83,65
779,84,41
779,85,17
779,86,17
779,87,17
779,88,49
779,89,17
779,90,49
779,91,17
779,92,17
779,93,17
779,94,17
779,95,17
779,96,17
779,97,17
779,98,17
779,99,17
779,100,17
779,101,17
779,102,65
779,103,65
779,104,65
779,105,17
779,106,17
779,107,17
779,108,17
779,109,17
779,110,17
779,111,17
779,112,33
779,113,33
779,114,33
779,115,33
779,116,33
779,117,17
779,118,17
779,119,33
779,120,33
779,121,17
779,122,17
779,123,17
779,124,17
779,125,17
779,126,17
779,127,17
779,128,33
779,129,32
779,130,17
779,131,17
779,132,17
779,133,17
779,134,17
779,135,17
779,136,17
779,137,33
779,138,17
779,139,17
779,140,17
779,141,17
779,142,17
779,143,65
779,144,65
779,145,49
779,146,49
779,147,49
779,148,49
779,149,49
779,150,49
779,151,49
779,152,49
779,153,49
779,154,49
779,155,49
779,156,49
779,157,33
779,158,33
779,159,65
779,160,65
779,161,161
779,162,162
779,163,162
779,164,163
779,165,164
779,166,165
779,167,166
779,168,167
779,169,168
779,170,33
779,171,17
779,172,171
779,173,172
779,174,173
779,175,174
779,176,175
779,177,33
779,178,177
779,179,178
779,180,179
779,181,180
779,182,181
779,183,182
779,184,183
779,185,184
779,186,185
779,187,186
779,188,187
779,189,188
779,190,189
779,191,190
779,192,191
779,193,192
779,194,193
779,195,194
779,196,195
779,197,196
779,198,197
779,199,198
779,200,199
779,201,200
779,202,201
779,203,202
779,204,203
779,205,204
779,206,205
779,207,206
779,208,207
779,209,208
779,210,209
779,211,210
779,212,211
779,213,212
779,214,213
779,215,214
779,216,215
779,217,216
779,218,217
779,219,218
779,220,219
779,221,220
779,222,221
779,223,222
779,224,223
779,225,224
779,226,225
779,227,226
779,228,227
779,229,228
779,230,229
779,231,230
779,232,231
779,233,232
779,234,233
779,235,234
779,236,235
779,237,236
779,238,237
779,239,238
779,240,239
779,241,240
779,242,241
779,243,242
779,244,243
779,245,244
779,246,245
779,247,246
779,248,247
779,249,248
780,0,299
781,0,81
782,0,82
783,0,1,5,1,3,1,1,0,0,0,0,0,0,0,0,0,0,0,0,0,0,0,0,0,0,0,0,0,0,0,0,0,1
783,1,1,5,1,3,1,1,0,0,0,0,0,0,0,0,0,0,0,0,0,0,0,0,0,0,0,0,0,0,0,0,0,2
783,2,1,5,1,3,1,1,0,0,0,0,0,0,0,0,0,0,0,0,0,0,0,0,0,0,0,0,0,0,0,0,0,3
783,3,1,5,1,3,1,1,0,0,0,0,0,0,0,0,0,0,0,0,0,0,0,0,0,0,0,0,0,0,0,0,0,4
784,0,3
902,0,1201
903,0,1
904,0,5
905,0,71
906,0,2
907,0,31
908,0,7
909,0,55
910,0,160
910,1,161
910,2,162
910,3,163
911,0,176
911,1,177
911,2,178
911,3,179
912,0,12
913,0,208
913,1,209
913,2,210
914,0,10183
914,1,140793
914,2,4294925358
914,3,4584
914,4,4294967162
1024,1,241
1024,3,1
1024,4,0
1024,5,0
1024,6,0
1024,7,1
1024,8,1
1024,9,4
1024,10,2
1024,11,1
1024,12,1
1024,13,5
1024,14,12
1024,15,201
1024,16,1
1024,17,3
1024,18,1
1024,19,148
1024,20,17
1024,21,1
1024,22,1
1024,23,101
1024,24,9
1024,25,2
1024,26,1
1024,27,1
1024,28,254
1024,29,9
1024,30,44
1024,31,1
1024,32,6
1024,33,9
1024,34,9
1024,35,1
1024,36,5
1024,37,59
1024,38,29
1024,39,1
1024,40,1
1024,41,1
1024,42,1
1024,43,5
1024,44,9
1024,45,33
1024,46,1
1024,47,2
1024,48,1
1024,49,1
1024,50,1
1024,51,1
1024,52,1
1024,53,1
1024,54,3
1024,55,68
1024,56,4
1024,57,1
1024,58,1
1024,59,1
1024,60,1
1024,61,1
1024,62,1
1024,63,1
1025,0,6
1026,0,1
1027,0,58
1028,0,59
1029,0,254
1029,1,2
1030,0,1
1031,0,900
1031,1,901
1031,2,902
1032,0,5
1032,1,6
1032,2,7
1033,0,241
1033,1,242
1033,2,243
1034,0,8
1034,1,9
1034,2,10
1035,0,135
1036,0,1
1037,0,1
1038,0,4
1039,0,7
1040,0,14
1041,0,2
1043,0,2
1043,1,3
1044,0,1
1045,0,5
1046,0,154402937
1046,1,162660473
1047,0,4
1048,0,10
1048,1,1
1049,0,10
1049,1,1
1050,0,6
1050,1,11
1051,0,13
1051,1,1
1052,0,160
1052,1,177
1052,2,194
1053,0,11
1054,0,12
1055,0,7
1056,0,89
1057,0,7
1058,0,8
1059,0,9
1060,0,17
1061,0,817
1061,1,1537
1061,2,98
1061,3,99
1062,0,2
1063,0,3
1063,1,4
1064,0,64
1065,0,80
1066,0,254
1066,1,6
1067,0,7
1068,0,8
1069,0,31
1280,0,69
1281,0,161
1281,1,177
1281,2,194
1281,3,4294967294
1282,0,4294967294
1282,1,129
1282,2,130
1282,3,131
1283,0,49
1284,0,65
1285,0,81
1408,0,128
1408,1,129
1408,2,130
1408,3,131
1408,4,132
1409,0,144
1409,1,145
1409,2,146
1409,3,147
1409,4,148
1410,0,10
1410,1,1
1410,2,2
1410,3,3
1410,4,4
1411,0,20709
1411,1,65534
1411,2,65532
1411,3,65530
1412,0,18
1412,1,1
1412,2,2
1412,3,3
1536,0,54
1536,1,1
1536,2,2
1536,3,3
1537,0,1
1537,1,1
1537,2,2
1537,3,3
1538,0,56
1538,1,1
1538,2,2
1538,3,3
1539,0,4
1540,0,40
1541,0,65
1541,1,1
1541,2,2
1541,3,3
1541,4,4
1541,5,5
1541,6,6
1541,7,7
1541,8,8
1541,9,9
1541,10,16
1541,11,17
1541,12,18
1541,13,19
1541,14,20
1541,15,21
1541,16,22
1541,17,23
1541,18,24
1541,19,25
1541,20,32
1541,21,33
1541,22,34
1541,23,35
1541,24,36
1541,25,37
1541,26,38
1541,27,39
1541,28,40
1541,29,41
1541,30,48
1541,31,49
2048,0,48
2049,0,49
2050,0,50
2050,1,1
2050,2,2
2050,3,3
2051,0,51
2052,0,52
2053,0,53
2080,0,"param2080"
2081,0,128
2082,0,171,205,239,18,52,86
2082,1,120,144,171,205,239,18
2082,2,52,86,120,144,171,205
2082,3,239,18,52,86,120,144
2082,4,0,0,0,0,0,18
2082,5,0,0,0,0,0,52
2082,6,0,0,0,0,0,86
2082,7,0,0,0,0,0,120
2083,0,2
2084,0,171,205,239,18,52,86,120,144,171,205,239,18,52,86,120,144
2085,0,"param2086"
2086,0,1559
2087,0,15
2088,0,"Param 2088"
2176,0,"Param 2176 01"
2176,1,"Param 2176 02"
2176,2,"Param 2176 03"
2176,3,"Param 2176 04"
2176,4,"Param 2176 05"
2176,5,"Param 2176 06"
2176,6,"Param 2176 07"
2176,7,"Param 2176 08"
2177,0,"P 2177 00"
2177,1,"P 2177 01"
2177,2,"P 2177 02"
2177,3,"P 2177 03"
2177,4,"P 2177 04"
2177,5,"P 2177 05"
2177,6,"P 2177 06"
2177,7,"P 2177 07"
2177,8,"P 2177 08"
2177,9,"P 2177 09"
2177,10,"P 2177 10"
2177,11,"P 2177 11"
2177,12,"P 2177 12"
2177,13,"P 2177 13"
2177,14,"P 2177 14"
2177,15,"P 2177 15"
2178,0,"pARAM2178 00"
2178,1,"pARAM2178 01"
2178,2,"pARAM2178 02"
2178,3,"pARAM2178 03"
2178,4,"pARAM2178 04"
2178,5,"pARAM2178 05"
2178,6,"pARAM2178 06"
2178,7,"pARAM2178 07"
2304,0,"17"
2305,0,"17607073287"
2306,0,"230600"
2306,1,"230601"
2306,2,"230602"
2307,0,2
2310,0,3635502583
2311,0,20507
2312,0,18
2313,0,1
2314,0,"Param 2314 00"
2314,1,"Param 2314 01"
2315,0,"Param 2315 00"
2315,1,"Param 2315 01"
2316,0,"231600"
2316,1,"231601"
2317,0,1
2318,0,"231801"
2319,0,"URL_INBOUND 00"
2319,1,"URL_INBOUND 01"
2320,0,"testPULS.com"
2321,0,"p2321"
2322,0,86401
2323,0,"p2323 01"
2325,0,"p2325 01"
2326,0,"p2326 01"
2327,0,6
2327,1,1
2327,2,2
2327,3,3
2328,0,"Param 2328"
2329,0,"www.googleit.com"
2329,1,"www.yahooit.com"
2330,0,2
2560,0,16
2560,1,1
2560,2,2
2560,3,3
2560,4,4
2560,5,5
2560,6,6
2560,7,7
2560,8,8
2560,9,9
2560,10,10
2560,11,11
2560,12,12
2560,13,13
2560,14,14
2560,15,15
2560,16,16
2560,17,17
2560,18,18
2560,19,19
2560,20,20
2560,21,21
2560,22,22
2560,23,23
2560,24,24
2560,25,25
2560,26,26
2560,27,27
2560,28,28
2560,29,29
2560,30,30
2560,31,31
2560,32,32
2560,33,33
2560,34,34
2560,35,35
2560,36,36
2560,37,37
2560,38,38
2560,39,39
2560,40,40
2560,41,41
2560,42,42
2560,43,43
2560,44,44
2560,45,45
2560,46,46
2560,47,47
2560,48,48
2560,49,49
2560,50,50
2560,51,51
2560,52,52
2560,53,53
2560,54,54
2560,55,55
2560,56,56
2560,57,57
2560,58,58
2560,59,59
2560,60,60
2560,61,61
2560,62,62
2560,63,63
2688,0,8
2688,1,1
2688,2,2
2688,3,3
2688,4,4
2688,5,5
2688,6,6
2688,7,7
2688,8,8
2688,9,9
2688,10,10
2688,11,11
2688,12,12
2688,13,13
2688,14,14
2688,15,15
2688,16,16
2688,17,17
2688,18,18
2688,19,19
2688,20,20
2688,21,21
2688,22,22
2688,23,23
2688,24,24
2688,25,25
2688,26,26
2688,27,27
2688,28,28
2688,29,29
2688,30,30
2688,31,31
2689,0,137
2689,1,1
2689,2,2
2689,3,3
2689,4,4
2689,5,5
2689,6,6
2689,7,7
2689,8,8
2689,9,9
2689,10,10
2689,11,11
2689,12,12
2689,13,13
2689,14,14
2689,15,15
2690,0,144
2690,1,1
2690,2,2
2690,3,3
2690,4,4
2690,5,5
2690,6,6
2690,7,7
2690,8,8
2690,9,9
2690,10,10
2690,11,11
2690,12,12
2690,13,13
2690,14,14
2690,15,15
2691,0,"P269100"
2691,1,"Q269101"
2691,2,"R 2691 02"
2691,3,"S 2691 03"
2691,4,"T 2691 04"
2691,5,"U 2691 05"
2691,6,"V 2691 06"
2691,7,"W 2691 07"
2691,8,"@ 2691 08"
2691,9,"A 2691 09"
2691,10,"B 2691 10"
2691,11,"C 2691 11"
2691,12,"D 2691 12"
2691,13,"E 2691 13"
2691,14,"F 2691 14"
2691,15,"G 2691 15"
2692,0,"2692 05"
2692,1,"2692 15"
2692,2,"2692 25"
2692,3,"2692 35"
2692,4,"2692 45"
2692,5,"2692 55"
2692,6,"2692 65"
2692,7,"2692 75"
2693,0,20610
2816,0,240870
2817,0,3122188996
2818,0,"p2818 00"
2819,0,3273808273
2820,0,46435
2821,0,"p2821 00"
2822,0,"p2822 00"
2823,0,15
2824,0,3
2825,0,12
3200,0,10
3201,0,1
3201,1,2
3201,2,3
3201,3,3
3202,0,11
3202,1,1
3202,2,2
3202,3,3
3203,0,12
3203,1,1
3203,2,2
3203,3,3
3204,0,13
3204,1,1
3204,2,2
3204,3,3
3205,0,"Param3205 00"
3205,1,"Param3205 01"
3205,2,"Param3205 02"
3205,3,"Param3205 03"
3206,0,"Param3206 00"
3206,1,"Param3206 01"
3206,2,"Param3206 02"
3206,3,"Param3206 03"
3207,0,"Param3207 00"
3207,1,"Param3207 01"
3207,2,"Param3207 02"
3207,3,"Param3207 03"
3208,0,32
3208,1,1
3208,2,2
3208,3,3
3209,0,9
3209,1,1
3209,2,2
3209,3,3
3210,0,10
3210,1,1
3210,2,2
3210,3,3
3211,0,11
3211,1,1
3211,2,2
3211,3,3
3212,0,"Param 3212 00"
3212,1,"Param 3212 01"
3212,2,"Param 3212 02"
3212,3,"Param 3212 03"
3328,0,241
3328,1,1
3328,2,2
3328,3,3
3328,4,4
3328,5,5
3328,6,6
3328,7,7
3328,8,8
3328,9,9
3328,10,10
3328,11,11
3328,12,12
3328,13,13
3328,14,14
3328,15,15
3328,16,16
3328,17,17
3328,18,18
3328,19,19
3328,20,20
3328,21,21
3328,22,22
3328,23,23
3328,24,24
3328,25,25
3328,26,26
3328,27,27
3328,28,28
3328,29,29
3328,30,30
3328,31,31
3329,0,9
3329,1,1
3329,2,2
3329,3,3
3329,4,4
3329,5,5
3329,6,6
3329,7,7
3329,8,8
3329,9,9
3329,10,10
3329,11,11
3329,12,12
3329,13,13
3329,14,14
3329,15,15
3330,0,30
3330,1,1
3330,2,2
3330,3,3
3330,4,4
3330,5,5
3330,6,6
3330,7,7
3330,8,8
3330,9,9
3330,10,10
3330,11,11
3330,12,12
3330,13,13
3330,14,14
3330,15,15
3331,0,"P087"
3331,1,"P117"
3331,2,"P*12"
3331,3,"P*31"
3331,4,"P041"
3331,5,"P161"
3331,6,"P061"
3331,7,"P071"
3332,0,32
3333,0,33
3334,0,34
3335,0,35
3336,0,36
3337,0,37
3338,0,38
3339,0,39
3340,0,40
3341,0,41
3342,0,42
3343,0,171,205,239,18,52,86,120,144
3344,0,"p3344 00"
3345,0,221
3346,0,46
3346,1,1
3346,2,2
3346,3,3
3346,4,4
3346,5,5
3346,6,6
3346,7,7
3346,8,8
3346,9,9
3346,10,16
3346,11,17
3346,12,18
3346,13,19
3346,14,20
3346,15,21
3346,16,22
3346,17,23
3346,18,24
3346,19,25
3346,20,32
3346,21,33
3346,22,34
3346,23,35
3346,24,36
3346,25,37
3346,26,38
3346,27,39
3346,28,40
3346,29,41
3346,30,48
3346,31,49
3347,0,1
3348,0,2
3349,0,3
3350,0,15
