exp = [265,32,32] act = []
exp = [265,33,33] act = []
exp = [265,34,34] act = []
exp = [265,35,180] act = []
exp = [265,36,36] act = []
exp = [265,37,160] act = []
exp = [265,38,38] act = []
exp = [265,39,39] act = []
exp = [265,40,40] act = []
exp = [265,41,5] act = []
exp = [265,42,42] act = []
exp = [265,43,43] act = []
exp = [265,44,44] act = []
exp = [265,45,45] act = []
exp = [265,46,46] act = []
exp = [265,47,47] act = []
exp = [265,48,48] act = []
exp = [265,49,49] act = []
exp = [265,50,50] act = []
exp = [265,51,51] act = []
exp = [265,52,52] act = []
exp = [265,53,53] act = []
exp = [265,54,54] act = []
exp = [265,55,55] act = []
exp = [265,56,56] act = []
exp = [265,57,57] act = []
exp = [265,58,58] act = []
exp = [265,59,59] act = []
exp = [265,60,60] act = []
exp = [265,61,61] act = []
exp = [265,62,62] act = []
exp = [265,63,63] act = []
exp = [266,32,32] act = []
exp = [266,33,33] act = []
exp = [266,34,34] act = []
exp = [266,35,35] act = []
exp = [266,36,36] act = []
exp = [266,37,37] act = []
exp = [266,38,38] act = []
exp = [266,39,39] act = []
exp = [266,40,40] act = []
exp = [266,41,1] act = []
exp = [266,42,42] act = []
exp = [266,43,43] act = []
exp = [266,44,44] act = []
exp = [266,45,46] act = []
exp = [266,46,47] act = []
exp = [266,47,48] act = []
exp = [266,48,1] act = []
exp = [266,49,1] act = []
exp = [266,50,51] act = []
exp = [266,51,52] act = []
exp = [266,52,53] act = []
exp = [266,53,54] act = []
exp = [266,54,3550] act = []
exp = [266,55,56] act = []
exp = [266,56,57] act = []
exp = [266,57,58] act = []
exp = [266,58,59] act = []
exp = [266,59,60] act = []
exp = [266,60,61] act = []
exp = [266,61,62] act = []
exp = [266,62,63] act = []
exp = [266,63,64] act = []
exp = [279,32,132] act = []
exp = [279,33,133] act = []
exp = [279,34,134] act = []
exp = [279,35,135] act = []
exp = [279,36,136] act = []
exp = [279,37,137] act = []
exp = [279,38,138] act = []
exp = [279,39,139] act = []
exp = [279,40,140] act = []
exp = [279,41,141] act = []
exp = [279,42,142] act = []
exp = [279,43,143] act = []
exp = [279,44,144] act = []
exp = [279,45,145] act = []
exp = [279,46,146] act = []
exp = [279,47,147] act = []
exp = [279,48,148] act = []
exp = [279,49,149] act = []
exp = [279,50,150] act = []
exp = [279,51,151] act = []
exp = [279,52,152] act = []
exp = [279,53,153] act = []
exp = [279,54,154] act = []
exp = [279,55,155] act = []
exp = [279,56,156] act = []
exp = [279,57,157] act = []
exp = [279,58,158] act = []
exp = [279,59,159] act = []
exp = [279,60,160] act = []
exp = [279,61,161] act = []
exp = [279,62,162] act = []
exp = [279,63,163] act = []
exp = [280,32,32] act = []
exp = [280,33,33] act = []
exp = [280,34,34] act = []
exp = [280,35,35] act = []
exp = [280,36,36] act = []
exp = [280,37,37] act = []
exp = [280,38,38] act = []
exp = [280,39,39] act = []
exp = [280,40,40] act = []
exp = [280,41,41] act = []
exp = [280,42,42] act = []
exp = [280,43,43] act = []
exp = [280,44,44] act = []
exp = [280,45,45] act = []
exp = [280,46,46] act = []
exp = [280,47,47] act = []
exp = [280,48,1] act = []
exp = [280,49,2] act = []
exp = [280,50,3] act = []
exp = [280,51,4] act = []
exp = [280,52,5] act = []
exp = [280,53,53] act = []
exp = [280,54,9] act = []
exp = [280,55,55] act = []
exp = [280,56,56] act = []
exp = [280,57,57] act = []
exp = [280,58,58] act = []
exp = [280,59,59] act = []
exp = [280,60,60] act = []
exp = [280,61,61] act = []
exp = [280,62,62] act = []
exp = [280,63,63] act = []
exp = [287,8,46,1,52,4,24,5,0,0,0,0,0,0,0,0,0,0] act = []
exp = [287,9,42,4,55,14,55,253,182,10,94,2,0,0,0,0,0,0] act = []
exp = [287,10,54,7,118,254,34,12,0,0,0,0,0,0,0,0,0,0] act = []
exp = [287,11,254,34,54,7,118,254,34,12,0,0,0,0,0,0,0,0] act = []
exp = [287,12,254,34,40,253,62,6,57,4,68,8,0,0,0,0,0,0] act = []
exp = [287,13,254,34,40,253,62,6,57,4,68,8,0,0,0,0,0,0] act = []
exp = [287,14,94,2,40,253,62,6,57,4,68,8,0,0,0,0,0,0] act = []
exp = [287,15,46,1,52,4,24,5,0,0,0,0,0,0,0,0,0,0] act = []
exp = [287,16,54,7,118,254,34,12,0,0,0,0,0,0,0,0,0,0] act = []
exp = [287,17,254,18,54,7,118,254,34,12,0,0,0,0,0,0,0,0] act = []
exp = [287,18,254,33,40,253,62,6,57,4,52,8,0,0,0,0,0,0] act = []
exp = [287,19,254,34,24,253,62,6,57,4,67,8,0,0,0,0,0,0] act = []
exp = [287,20,94,2,39,253,62,6,57,4,52,7,0,0,0,0,0,0] act = []
exp = [287,21,46,1,52,4,24,5,0,0,0,0,0,0,0,0,0,0] act = []
exp = [287,22,254,18,56,253,46,5,56,4,52,8,0,0,0,0,0,0] act = []
exp = [287,23,234,18,49,127,211,224,99,147,36,8,0,0,0,0,0,0] act = []
exp = [287,24,94,2,40,253,62,6,57,4,68,8,0,0,0,0,0,0] act = []
exp = [287,25,30,2,52,3,40,4,0,0,0,0,0,0,0,0,0,0] act = []
exp = [287,26,37,6,86,235,18,12,0,0,0,0,0,0,0,0,0,0] act = []
exp = [287,27,254,18,54,7,118,254,34,12,0,0,0,0,0,0,0,0] act = []
exp = [287,28,235,33,40,253,46,5,57,4,52,8,0,0,0,0,0,0] act = []
exp = [287,29,234,18,24,253,46,6,41,4,67,8,0,0,0,0,0,0] act = []
exp = [287,30,78,1,39,253,62,5,57,4,52,7,0,0,0,0,0,0] act = []
exp = [287,31,46,1,68,4,24,4,0,0,0,0,0,0,0,0,0,0] act = []
exp = [514,0,37,64,12,31,17,31,0,0] act = []
exp = [514,1,37,64,11,31,8,0,0,0] act = []
exp = [514,2,18,31,0,0,9,0,0,0] act = []
exp = [514,3,37,65,12,32,17,32,0,0] act = []
exp = [514,4,37,65,11,32,8,1,0,0] act = []
exp = [514,5,18,32,0,0,9,1,0,0] act = []
exp = [514,6,37,66,12,62,17,62,0,0] act = []
exp = [514,7,37,66,11,62,8,3,0,0] act = []
exp = [514,8,18,62,0,0,9,3,0,0] act = []
exp = [514,9,37,67,12,63,17,63,0,0] act = []
exp = [514,10,37,67,11,63,8,4,0,0] act = []
exp = [514,11,18,63,0,0,9,4,0,0] act = []
exp = [514,12,76,0,38,42,31,32,0,0] act = []
exp = [514,13,18,11,2,0,32,32,16,32] act = []
exp = [514,14,15,0,16,32,32,32,0,0] act = []
exp = [514,15,48,0,11,35,31,33,75,37] act = []
exp = [514,16,48,0,169,2,32,33,16,33] act = []
exp = [514,17,49,9,0,0,0,0,0,0] act = []
exp = [514,18,49,8,0,0,0,0,0,0] act = []
exp = [514,19,49,7,0,0,0,0,0,0] act = []
exp = [514,20,14,0,41,192,17,9,0,0] act = []
exp = [514,21,14,0,41,192,123,2,0,0] act = []
exp = [514,22,13,0,41,192,30,9,0,0] act = []
exp = [514,23,18,9,41,192,9,4,0,0] act = []
exp = [514,24,18,9,41,192,106,1,0,0] act = []
exp = [514,25,18,9,58,29,0,0,1,0] act = []
exp = [514,26,18,9,58,29,0,0,1,0] act = []
exp = [514,27,18,9,58,29,13,42,1,0] act = []
exp = [514,28,18,9,58,29,27,37,1,0] act = []
exp = [514,29,18,9,58,29,29,27,2,0] act = []
exp = [514,30,18,9,58,29,26,13,2,0] act = []
exp = [514,31,18,9,41,192,79,193,0,0] act = []
exp = [514,32,13,0,41,193,8,4,0,0] act = []
exp = [514,33,13,0,41,193,106,0,0,0] act = []
exp = [514,34,13,0,58,28,30,42,1,0] act = []
exp = [514,35,13,0,58,28,29,37,1,0] act = []
exp = [514,36,13,0,58,28,7,0,1,0] act = []
exp = [514,37,13,0,58,28,27,36,1,0] act = []
exp = [514,38,13,0,58,28,29,13,2,0] act = []
exp = [514,39,13,0,58,28,26,27,2,0] act = []
exp = [514,40,13,0,41,193,79,192,0,0] act = []
exp = [514,41,3,0,0,0,102,51,0,0] act = []
exp = [514,42,3,0,0,0,8,4,0,0] act = []
exp = [514,43,3,0,41,193,17,25,0,0] act = []
exp = [514,44,18,25,41,193,9,4,0,0] act = []
exp = [514,45,3,0,41,192,17,9,12,9] act = []
exp = [514,46,3,0,41,193,106,1,0,0] act = []
exp = [514,47,15,0,0,0,13,0,0,0] act = []
exp = [514,48,15,0,0,0,19,21,0,0] act = []
exp = [514,49,15,0,0,0,27,21,0,0] act = []
exp = [514,50,18,0,0,0,32,8,0,0] act = []
exp = [514,51,18,0,0,0,64,14,0,0] act = []
exp = [514,52,18,0,0,0,19,21,0,0] act = []
exp = [514,53,19,21,0,0,31,8,0,0] act = []
exp = [514,54,19,21,0,0,64,14,0,0] act = []
exp = [514,55,19,21,0,0,13,0,0,0] act = []
exp = [514,56,19,21,0,0,19,21,0,0] act = []
exp = [514,57,19,45,0,0,31,9,0,0] act = []
exp = [514,58,19,45,0,0,64,14,0,0] act = []
exp = [514,59,47,45,0,0,17,17,0,0] act = []
exp = [514,60,19,45,0,0,30,17,0,0] act = []
exp = [514,61,18,17,25,45,32,9,0,0] act = []
exp = [514,62,18,17,25,45,64,14,0,0] act = []
exp = [514,63,16,0,0,0,32,8,0,0] act = []
exp = [514,64,16,0,0,0,64,14,0,0] act = []
exp = [514,65,16,0,0,0,32,9,0,0] act = []
exp = [514,66,16,0,0,0,64,14,0,0] act = []
exp = [514,67,16,0,0,0,30,17,0,0] act = []
exp = [514,68,16,0,0,0,30,0,0,0] act = []
exp = [514,69,16,0,0,0,29,21,0,0] act = []
exp = [514,70,78,145,17,37,64,14,0,0] act = []
exp = [514,71,78,145,17,37,122,83,0,0] act = []
exp = [514,72,78,145,17,37,51,242,0,0] act = []
exp = [514,73,78,145,17,37,31,37,0,0] act = []
exp = [514,74,78,144,16,37,64,14,0,0] act = []
exp = [514,75,78,144,16,37,122,82,0,0] act = []
exp = [514,76,78,144,16,37,51,242,0,0] act = []
exp = [514,77,78,144,16,37,32,37,0,0] act = []
exp = [514,78,49,16,2,0,0,0,0,0] act = []
exp = [514,79,49,16,3,0,0,0,0,0] act = []
exp = [514,80,48,0,38,77,8,1,166,78] act = []
exp = [514,81,48,0,38,77,31,61,166,78] act = []
exp = [514,82,78,15,38,77,8,1,38,78] act = []
exp = [514,83,78,15,38,77,31,61,38,78] act = []
exp = [514,84,78,15,38,77,122,144,38,78] act = []
exp = [514,85,78,15,38,77,51,242,38,78] act = []
exp = [514,86,78,16,38,77,9,1,38,78] act = []
exp = [514,87,78,16,38,77,122,143,38,78] act = []
exp = [514,88,78,16,38,77,51,242,38,78] act = []
exp = [514,89,47,18,0,0,17,15,0,0] act = []
exp = [514,90,18,15,25,18,122,54,0,0] act = []
exp = [514,91,18,15,25,18,51,242,0,0] act = []
exp = [514,92,18,15,25,18,23,1,0,0] act = []
exp = [514,93,66,1,1,0,122,137,0,0] act = []
exp = [514,94,66,1,1,0,51,242,0,0] act = []
exp = [514,95,79,0,1,0,122,158,0,0] act = []
exp = [514,96,79,0,1,0,51,242,0,0] act = []
exp = [514,97,1,0,24,32,31,38,0,0] act = []
exp = [514,98,1,0,25,32,32,38,0,0] act = []
exp = [514,99,1,0,24,33,31,39,0,0] act = []
exp = [514,100,1,0,25,33,32,39,0,0] act = []
exp = [514,101,19,32,17,38,51,106,0,0] act = []
exp = [514,102,47,32,16,38,51,120,0,0] act = []
exp = [514,103,19,33,17,39,51,135,0,0] act = []
exp = [514,104,47,33,16,39,51,149,0,0] act = []
exp = [514,105,48,0,0,0,50,164,0,0] act = []
exp = [514,106,48,0,0,0,31,38,0,0] act = []
exp = [514,107,48,0,38,76,124,15,7,0] act = []
exp = [514,108,48,0,38,76,125,32,7,0] act = []
exp = [514,109,48,0,38,76,32,7,7,0] act = []
exp = [514,110,48,0,38,76,64,14,7,0] act = []
exp = [514,111,48,0,38,76,122,119,7,0] act = []
exp = [514,112,48,0,1,0,0,0,41,193] act = []
exp = [514,113,48,0,0,0,30,23,0,0] act = []
exp = [514,114,48,0,0,0,30,27,0,0] act = []
exp = [514,115,48,0,38,14,117,26,0,0] act = []
exp = [514,116,48,0,0,0,19,17,0,0] act = []
exp = [514,117,48,0,0,0,19,36,0,0] act = []
exp = [514,118,48,0,0,0,0,0,0,0] act = []
exp = [514,119,48,0,0,0,52,0,0,0] act = []
exp = [514,120,48,0,0,0,32,38,0,0] act = []
exp = [514,121,48,0,38,76,124,15,7,0] act = []
exp = [514,122,48,0,38,76,125,34,7,0] act = []
exp = [514,123,48,0,38,76,19,34,7,0] act = []
exp = [514,124,48,0,38,76,32,7,7,0] act = []
exp = [514,125,48,0,38,76,64,14,7,0] act = []
exp = [514,126,48,0,38,76,122,120,7,0] act = []
exp = [514,127,48,0,1,0,0,0,41,193] act = []
exp = [514,128,48,0,0,0,30,23,0,0] act = []
exp = [514,129,48,0,0,0,30,27,0,0] act = []
exp = [514,130,48,0,38,14,117,26,0,0] act = []
exp = [514,131,48,0,0,0,19,17,0,0] act = []
exp = [514,132,48,0,0,0,19,36,0,0] act = []
exp = [514,133,48,0,0,0,0,0,0,0] act = []
exp = [514,134,48,0,0,0,52,0,0,0] act = []
exp = [514,135,48,0,0,0,31,39,0,0] act = []
exp = [514,136,48,0,38,76,124,15,7,0] act = []
exp = [514,137,48,0,38,76,125,33,7,0] act = []
exp = [514,138,48,0,38,76,31,7,7,0] act = []
exp = [514,139,48,0,38,76,64,14,7,0] act = []
exp = [514,140,48,0,38,76,122,119,7,0] act = []
exp = [514,141,48,0,1,0,0,0,41,193] act = []
exp = [514,142,48,0,0,0,30,23,0,0] act = []
exp = [514,143,48,0,0,0,30,27,0,0] act = []
exp = [514,144,48,0,38,14,117,26,0,0] act = []
exp = [514,145,48,0,0,0,19,17,0,0] act = []
exp = [514,146,48,0,0,0,19,36,0,0] act = []
exp = [514,147,48,0,0,0,0,0,0,0] act = []
exp = [514,148,48,0,0,0,52,0,0,0] act = []
exp = [514,149,48,0,0,0,32,39,0,0] act = []
exp = [514,150,48,0,38,76,124,15,7,0] act = []
exp = [514,151,48,0,38,76,125,35,7,0] act = []
exp = [514,152,48,0,38,76,19,35,7,0] act = []
exp = [514,153,48,0,38,76,31,7,7,0] act = []
exp = [514,154,48,0,38,76,64,14,7,0] act = []
exp = [514,155,48,0,38,76,122,120,7,0] act = []
exp = [514,156,48,0,1,0,0,0,41,193] act = []
exp = [514,157,48,0,0,0,30,23,0,0] act = []
exp = [514,158,48,0,0,0,30,27,0,0] act = []
exp = [514,159,48,0,38,14,117,26,0,0] act = []
exp = [514,160,48,0,0,0,19,17,0,0] act = []
exp = [514,161,48,0,0,0,19,36,0,0] act = []
exp = [514,162,48,0,0,0,0,0,0,0] act = []
exp = [514,163,48,0,0,0,52,0,0,0] act = []
exp = [514,164,18,42,1,0,122,6,41,128] act = []
exp = [514,165,18,42,1,0,19,37,41,128] act = []
exp = [514,166,17,0,41,193,106,0,0,0] act = []
exp = [514,167,17,0,1,0,122,6,41,128] act = []
exp = [514,168,17,0,1,0,51,242,41,128] act = []
exp = [514,169,17,0,41,193,106,1,0,0] act = []
exp = [514,170,19,36,41,193,106,0,0,0] act = []
exp = [514,171,19,36,1,0,122,6,41,128] act = []
exp = [514,172,19,36,1,0,51,242,41,128] act = []
exp = [514,173,19,36,41,193,106,1,0,0] act = []
exp = [514,174,19,37,1,0,122,6,0,0] act = []
exp = [514,175,19,37,1,0,13,42,0,0] act = []
exp = [514,176,19,37,0,0,19,37,0,0] act = []
exp = [514,177,18,42,38,2,122,129,41,129] act = []
exp = [514,178,18,42,38,2,19,37,41,129] act = []
exp = [514,179,17,0,38,2,122,129,41,129] act = []
exp = [514,180,17,0,38,2,51,242,41,129] act = []
exp = [514,181,19,36,38,2,122,129,41,129] act = []
exp = [514,182,19,36,38,2,51,242,41,129] act = []
exp = [514,183,19,37,38,2,122,129,41,129] act = []
exp = [514,184,19,37,38,2,13,42,41,129] act = []
exp = [514,185,78,16,38,77,32,61,38,78] act = []
exp = [514,186,78,15,38,77,39,0,38,78] act = []
exp = [514,187,78,16,38,77,39,0,38,78] act = []
exp = [514,188,33,16,0,0,0,0,0,0] act = []
exp = [514,189,50,32,0,0,0,0,0,0] act = []
exp = [514,190,34,32,0,0,0,0,0,0] act = []
exp = [514,191,17,33,0,0,0,0,0,0] act = []
exp = [514,192,17,33,16,0,0,0,0,0] act = []
exp = [514,193,33,33,112,0,0,0,0,0] act = []
exp = [514,194,33,33,112,0,0,0,0,0] act = []
exp = [514,195,33,33,117,0,0,0,0,0] act = []
exp = [514,196,33,33,117,16,0,0,0,0] act = []
exp = [514,197,49,33,117,32,0,0,0,0] act = []
exp = [514,198,49,33,117,33,0,0,0,0] act = []
exp = [514,199,48,0,166,12,19,27,24,27] act = []
exp = [514,200,48,0,166,12,19,13,24,13] act = []
exp = [514,201,15,0,41,64,79,65,0,0] act = []
exp = [514,202,15,0,0,0,39,0,0,0] act = []
exp = [514,203,78,98,0,0,122,33,0,0] act = []
exp = [514,204,78,98,0,0,51,242,0,0] act = []
exp = [514,205,78,1,0,0,122,38,0,0] act = []
exp = [514,206,78,1,0,0,51,242,0,0] act = []
exp = [514,207,78,72,0,0,122,55,0,0] act = []
exp = [514,208,78,72,0,0,51,242,0,0] act = []
exp = [514,209,78,2,0,0,122,39,0,0] act = []
exp = [514,210,78,2,0,0,51,242,0,0] act = []
exp = [514,211,78,0,0,0,122,12,0,0] act = []
exp = [514,212,78,0,0,0,51,242,0,0] act = []
exp = [514,213,78,114,0,0,122,28,0,0] act = []
exp = [514,214,78,114,0,0,51,242,0,0] act = []
exp = [514,215,78,82,0,0,122,19,0,0] act = []
exp = [514,216,78,82,0,0,51,242,0,0] act = []
exp = [514,217,78,119,0,0,122,102,0,0] act = []
exp = [514,218,78,119,0,0,51,242,0,0] act = []
exp = [514,219,78,87,0,0,122,102,0,0] act = []
exp = [514,220,78,87,0,0,51,242,0,0] act = []
exp = [514,221,78,90,0,0,122,104,0,0] act = []
exp = [514,222,78,90,0,0,51,242,0,0] act = []
exp = [514,223,78,3,0,0,122,41,0,0] act = []
exp = [514,224,78,3,0,0,51,242,0,0] act = []
exp = [514,225,78,4,0,0,122,43,0,0] act = []
exp = [514,226,78,4,0,0,51,242,0,0] act = []
exp = [514,227,78,5,0,0,122,44,0,0] act = []
exp = [514,228,78,5,0,0,51,242,0,0] act = []
exp = [514,229,78,6,0,0,122,45,0,0] act = []
exp = [514,230,78,6,0,0,51,242,0,0] act = []
exp = [514,231,78,7,0,0,122,46,0,0] act = []
exp = [514,232,78,7,0,0,51,242,0,0] act = []
exp = [514,233,78,8,0,0,122,48,0,0] act = []
exp = [514,234,78,8,0,0,51,242,0,0] act = []
exp = [514,235,78,9,0,0,122,49,0,0] act = []
exp = [514,236,78,9,0,0,51,242,0,0] act = []
exp = [514,237,78,10,0,0,122,50,0,0] act = []
exp = [514,238,78,10,0,0,51,242,0,0] act = []
exp = [514,239,78,14,0,0,122,58,0,0] act = []
exp = [514,240,78,14,0,0,51,242,0,0] act = []
exp = [514,241,48,0,0,0,53,0,0,0] act = []
exp = [514,242,48,0,1,0,0,0,41,193] act = []
exp = [514,243,48,0,0,0,30,23,0,0] act = []
exp = [514,244,48,0,0,0,30,27,0,0] act = []
exp = [514,245,48,0,38,14,0,0,0,0] act = []
exp = [514,246,48,0,0,0,19,17,0,0] act = []
exp = [514,247,48,0,0,0,19,36,0,0] act = []
exp = [514,248,48,0,0,0,0,0,0,0] act = []
exp = [514,249,48,0,0,0,52,0,0,0] act = []
exp = [1031,2,902] act = []
exp = [1032,2,7] act = []
exp = [1033,2,243] act = []
exp = [1034,2,10] act = []
exp = [1408,0,128] act = []
exp = [1408,1,129] act = []
exp = [1408,2,130] act = []
exp = [1408,3,131] act = []
exp = [1408,4,132] act = []
exp = [1409,0,144] act = []
exp = [1409,1,145] act = []
exp = [1409,2,146] act = []
exp = [1409,3,147] act = []
exp = [1409,4,148] act = []
exp = [1410,0,10] act = []
exp = [1410,1,1] act = []
exp = [1410,2,2] act = []
exp = [1410,3,3] act = []
exp = [1410,4,4] act = []
exp = [1411,0,20709] act = []
exp = [1411,1,65534] act = []
exp = [1411,2,65532] act = []
exp = [1411,3,65530] act = []
exp = [1412,0,18] act = []
exp = [1412,1,1] act = []
exp = [1412,2,2] act = []
exp = [1412,3,3] act = []
exp = [1541,0,65] act = []
exp = [1541,1,1] act = []
exp = [1541,2,2] act = []
exp = [1541,3,3] act = []
exp = [1541,4,4] act = []
exp = [1541,5,5] act = []
exp = [1541,6,6] act = []
exp = [1541,7,7] act = []
exp = [1541,8,8] act = []
exp = [1541,9,9] act = []
exp = [1541,10,16] act = []
exp = [1541,11,17] act = []
exp = [1541,12,18] act = []
exp = [1541,13,19] act = []
exp = [1541,14,20] act = []
exp = [1541,15,21] act = []
exp = [1541,16,22] act = []
exp = [1541,17,23] act = []
exp = [1541,18,24] act = []
exp = [1541,19,25] act = []
exp = [1541,20,32] act = []
exp = [1541,21,33] act = []
exp = [1541,22,34] act = []
exp = [1541,23,35] act = []
exp = [1541,24,36] act = []
exp = [1541,25,37] act = []
exp = [1541,26,38] act = []
exp = [1541,27,39] act = []
exp = [1541,28,40] act = []
exp = [1541,29,41] act = []
exp = [1541,30,48] act = []
exp = [1541,31,49] act = []
exp = [2560,32,32] act = []
exp = [2560,33,33] act = []
exp = [2560,34,34] act = []
exp = [2560,35,35] act = []
exp = [2560,36,36] act = []
exp = [2560,37,37] act = []
exp = [2560,38,38] act = []
exp = [2560,39,39] act = []
exp = [2560,40,40] act = []
exp = [2560,41,41] act = []
exp = [2560,42,42] act = []
exp = [2560,43,43] act = []
exp = [2560,44,44] act = []
exp = [2560,45,45] act = []
exp = [2560,46,46] act = []
exp = [2560,47,47] act = []
exp = [2560,48,48] act = []
exp = [2560,49,49] act = []
exp = [2560,50,50] act = []
exp = [2560,51,51] act = []
exp = [2560,52,52] act = []
exp = [2560,53,53] act = []
exp = [2560,54,54] act = []
exp = [2560,55,55] act = []
exp = [2560,56,56] act = []
exp = [2560,57,57] act = []
exp = [2560,58,58] act = []
exp = [2560,59,59] act = []
exp = [2560,60,60] act = []
exp = [2560,61,61] act = []
exp = [2560,62,62] act = []
exp = [2560,63,63] act = []
exp = [2688,0,8] act = []
exp = [2688,1,1] act = []
exp = [2688,2,2] act = []
exp = [2688,3,3] act = []
exp = [2688,4,4] act = []
exp = [2688,5,5] act = []
exp = [2688,6,6] act = []
exp = [2688,7,7] act = []
exp = [2688,8,8] act = []
exp = [2688,9,9] act = []
exp = [2688,10,10] act = []
exp = [2688,11,11] act = []
exp = [2688,12,12] act = []
exp = [2688,13,13] act = []
exp = [2688,14,14] act = []
exp = [2688,15,15] act = []
exp = [2688,16,16] act = []
exp = [2688,17,17] act = []
exp = [2688,18,18] act = []
exp = [2688,19,19] act = []
exp = [2688,20,20] act = []
exp = [2688,21,21] act = []
exp = [2688,22,22] act = []
exp = [2688,23,23] act = []
exp = [2688,24,24] act = []
exp = [2688,25,25] act = []
exp = [2688,26,26] act = []
exp = [2688,27,27] act = []
exp = [2688,28,28] act = []
exp = [2688,29,29] act = []
exp = [2688,30,30] act = []
exp = [2688,31,31] act = []
exp = [2689,0,137] act = []
exp = [2689,1,1] act = []
exp = [2689,2,2] act = []
exp = [2689,3,3] act = []
exp = [2689,4,4] act = []
exp = [2689,5,5] act = []
exp = [2689,6,6] act = []
exp = [2689,7,7] act = []
exp = [2689,8,8] act = []
exp = [2689,9,9] act = []
exp = [2689,10,10] act = []
exp = [2689,11,11] act = []
exp = [2689,12,12] act = []
exp = [2689,13,13] act = []
exp = [2689,14,14] act = []
exp = [2689,15,15] act = []
exp = [2690,0,144] act = []
exp = [2690,1,1] act = []
exp = [2690,2,2] act = []
exp = [2690,3,3] act = []
exp = [2690,4,4] act = []
exp = [2690,5,5] act = []
exp = [2690,6,6] act = []
exp = [2690,7,7] act = []
exp = [2690,8,8] act = []
exp = [2690,9,9] act = []
exp = [2690,10,10] act = []
exp = [2690,11,11] act = []
exp = [2690,12,12] act = []
exp = [2690,13,13] act = []
exp = [2690,14,14] act = []
exp = [2690,15,15] act = []
exp = [2691,0,"P269100"] act = []
exp = [2691,1,"Q269101"] act = []
exp = [2691,2,"R 2691 02"] act = []
exp = [2691,3,"S 2691 03"] act = []
exp = [2691,4,"T 2691 04"] act = []
exp = [2691,5,"U 2691 05"] act = []
exp = [2691,6,"V 2691 06"] act = []
exp = [2691,7,"W 2691 07"] act = []
exp = [2691,8,"@ 2691 08"] act = []
exp = [2691,9,"A 2691 09"] act = []
exp = [2691,10,"B 2691 10"] act = []
exp = [2691,11,"C 2691 11"] act = []
exp = [2691,12,"D 2691 12"] act = []
exp = [2691,13,"E 2691 13"] act = []
exp = [2691,14,"F 2691 14"] act = []
exp = [2691,15,"G 2691 15"] act = []
exp = [2692,0,"2692 05"] act = []
exp = [2692,1,"2692 15"] act = []
exp = [2692,2,"2692 25"] act = []
exp = [2692,3,"2692 35"] act = []
exp = [2692,4,"2692 45"] act = []
exp = [2692,5,"2692 55"] act = []
exp = [2692,6,"2692 65"] act = []
exp = [2692,7,"2692 75"] act = []
exp = [2693,0,20610] act = []
