exp = [261,18,216876900,1089859000,0,0,11,0] act = [261,18]
exp = [268,1,1665] act = [268,0,104]
exp = [280,21,21] act = [280,20,20]
exp = [290,7,167] act = [290,6,166]
exp = [512,113,18,28,0,0,19,27,0,0] act = [512,112,18,28,0,0,13,29,0,0]
exp = [513,57,19,1,16,3,13,3,38,64] act = [513,56,19,1,16,3,32,3,166,64]
exp = [779,73,17] act = [779,72,17]
exp = [910,1,161] act = [910,0,160]
exp = [1024,5,0] act = [1024,5,7]
exp = [1043,1,3] act = [1043,1,0]
exp = [1048,1,1] act = [1048,1,0]
exp = [1049,1,1] act = [1049,1,0]
exp = [1050,1,11] act = [1050,1,0]
exp = [1051,1,1] act = [1051,1,0]
exp = [1541,29,41] act = [1541,29]
exp = [2560,0,16] act = [2560,0,0]
exp = [2560,1,1] act = [2560,1,0]
exp = [2560,2,2] act = [2560,2,0]
exp = [2560,3,3] act = [2560,3,0]
exp = [2560,4,4] act = [2560,4,0]
exp = [2560,5,5] act = [2560,5,0]
exp = [2560,6,6] act = [2560,6,0]
exp = [2560,7,7] act = [2560,7,0]
exp = [2560,8,8] act = [2560,8,0]
exp = [2560,9,9] act = [2560,9,0]
exp = [2560,10,10] act = [2560,10,0]
exp = [2560,11,11] act = [2560,11,0]
exp = [2560,12,12] act = [2560,12,0]
exp = [2560,13,13] act = [2560,13,0]
exp = [2560,14,14] act = [2560,14,0]
exp = [2560,15,15] act = [2560,15,0]
exp = [2560,16,16] act = [2560,16,0]
exp = [2560,17,17] act = [2560,17,0]
exp = [2560,18,18] act = [2560,18,0]
exp = [2560,19,19] act = [2560,19,0]
exp = [2560,20,20] act = [2560,20,0]
exp = [2560,21,21] act = [2560,21,0]
exp = [2560,23,23] act = [2560,22,0]
exp = [2560,24,24] act = [2560,24,0]
exp = [2560,25,25] act = [2560,25,0]
exp = [2560,26,26] act = [2560,26,0]
exp = [2560,27,27] act = [2560,27,0]
exp = [2560,28,28] act = [2560,28,0]
exp = [2560,29,29] act = [2560,29,0]
exp = [2560,30,30] act = [2560,30,0]
exp = [2560,31,31] act = [2560,31,0]
exp = [2824,0,3] act = [2824,0,1]
