exp = [1043,1,3] act = [1043,1,0]
exp = [1048,1,1] act = [1048,1,0]
exp = [1049,1,1] act = [1049,1,0]
exp = [1050,1,11] act = [1050,1,0]
exp = [1051,1,1] act = [1051,1,0]
exp = [2824,0,3] act = [2824,0,1]
