exp = [1031,2,902] act = [1031,2,0]
exp = [1032,2,7] act = [1032,2,0]
exp = [1033,2,243] act = [1033,2,0]
exp = [1034,2,10] act = [1034,2,0]
exp = [1043,1,3] act = [1043,1,0]
exp = [1048,1,1] act = [1048,1,0]
exp = [1049,1,1] act = [1049,1,0]
exp = [1050,1,11] act = [1050,1,0]
exp = [1051,1,1] act = [1051,1,0]
exp = [1061,0,817] act = [1061,0,816]
exp = [1061,1,1537] act = [1061,1,1536]
exp = [1061,2,98] act = [1061,2,0]
exp = [1061,3,99] act = [1061,3,0]
exp = [2560,0,16] act = [2560,0,0]
exp = [2560,1,1] act = [2560,1,0]
exp = [2560,2,2] act = [2560,2,0]
exp = [2560,3,3] act = [2560,3,0]
exp = [2560,4,4] act = [2560,4,0]
exp = [2560,5,5] act = [2560,5,0]
exp = [2560,6,6] act = [2560,6,0]
exp = [2560,7,7] act = [2560,7,0]
exp = [2560,8,8] act = [2560,8,0]
exp = [2560,9,9] act = [2560,9,0]
exp = [2560,10,10] act = [2560,10,0]
exp = [2560,11,11] act = [2560,11,0]
exp = [2560,12,12] act = [2560,12,0]
exp = [2560,13,13] act = [2560,13,0]
exp = [2560,14,14] act = [2560,14,0]
exp = [2560,15,15] act = [2560,15,0]
exp = [2560,16,16] act = [2560,16,0]
exp = [2560,17,17] act = [2560,17,0]
exp = [2560,18,18] act = [2560,18,0]
exp = [2560,19,19] act = [2560,19,0]
exp = [2560,20,20] act = [2560,20,0]
exp = [2560,21,21] act = [2560,21,0]
exp = [2560,22,22] act = [2560,22,0]
exp = [2560,23,23] act = [2560,23,0]
exp = [2560,24,24] act = [2560,24,0]
exp = [2560,25,25] act = [2560,25,0]
exp = [2560,26,26] act = [2560,26,0]
exp = [2560,27,27] act = [2560,27,0]
exp = [2560,28,28] act = [2560,28,0]
exp = [2560,29,29] act = [2560,29,0]
exp = [2560,30,30] act = [2560,30,0]
exp = [2560,31,31] act = [2560,31,0]
