exp = [1541,0,65] act = []
exp = [1541,1,1] act = []
exp = [1541,2,2] act = []
exp = [1541,3,3] act = []
exp = [1541,4,4] act = []
exp = [1541,5,5] act = []
exp = [1541,6,6] act = []
exp = [1541,7,7] act = []
exp = [1541,8,8] act = []
exp = [1541,9,9] act = []
exp = [1541,10,16] act = []
exp = [1541,11,17] act = []
exp = [1541,12,18] act = []
exp = [1541,13,19] act = []
exp = [1541,14,20] act = []
exp = [1541,15,21] act = []
exp = [1541,16,22] act = []
exp = [1541,17,23] act = []
exp = [1541,18,24] act = []
exp = [1541,19,25] act = []
exp = [1541,20,32] act = []
exp = [1541,21,33] act = []
exp = [1541,22,34] act = []
exp = [1541,23,35] act = []
exp = [1541,24,36] act = []
exp = [1541,25,37] act = []
exp = [1541,26,38] act = []
exp = [1541,27,39] act = []
exp = [1541,28,40] act = []
exp = [1541,29,41] act = []
exp = [1541,30,48] act = []
exp = [1541,31,49] act = []
exp = [2688,0,8] act = []
exp = [2688,1,1] act = []
exp = [2688,2,2] act = []
exp = [2688,3,3] act = []
exp = [2688,4,4] act = []
exp = [2688,5,5] act = []
exp = [2688,6,6] act = []
exp = [2688,7,7] act = []
exp = [2688,8,8] act = []
exp = [2688,9,9] act = []
exp = [2688,10,10] act = []
exp = [2688,11,11] act = []
exp = [2688,12,12] act = []
exp = [2688,13,13] act = []
exp = [2688,14,14] act = []
exp = [2688,15,15] act = []
exp = [2688,16,16] act = []
exp = [2688,17,17] act = []
exp = [2688,18,18] act = []
exp = [2688,19,19] act = []
exp = [2688,20,20] act = []
exp = [2688,21,21] act = []
exp = [2688,22,22] act = []
exp = [2688,23,23] act = []
exp = [2688,24,24] act = []
exp = [2688,25,25] act = []
exp = [2688,26,26] act = []
exp = [2688,27,27] act = []
exp = [2688,28,28] act = []
exp = [2688,29,29] act = []
exp = [2688,30,30] act = []
exp = [2688,31,31] act = []
exp = [2689,0,137] act = []
exp = [2689,1,1] act = []
exp = [2689,2,2] act = []
exp = [2689,3,3] act = []
exp = [2689,4,4] act = []
exp = [2689,5,5] act = []
exp = [2689,6,6] act = []
exp = [2689,7,7] act = []
exp = [2689,8,8] act = []
exp = [2689,9,9] act = []
exp = [2689,10,10] act = []
exp = [2689,11,11] act = []
exp = [2689,12,12] act = []
exp = [2689,13,13] act = []
exp = [2689,14,14] act = []
exp = [2689,15,15] act = []
exp = [2690,0,144] act = []
exp = [2690,1,1] act = []
exp = [2690,2,2] act = []
exp = [2690,3,3] act = []
exp = [2690,4,4] act = []
exp = [2690,5,5] act = []
exp = [2690,6,6] act = []
exp = [2690,7,7] act = []
exp = [2690,8,8] act = []
exp = [2690,9,9] act = []
exp = [2690,10,10] act = []
exp = [2690,11,11] act = []
exp = [2690,12,12] act = []
exp = [2690,13,13] act = []
exp = [2690,14,14] act = []
exp = [2690,15,15] act = []
exp = [2691,0,"P269100"] act = []
exp = [2691,1,"Q269101"] act = []
exp = [2691,2,"R 2691 02"] act = []
exp = [2691,3,"S 2691 03"] act = []
exp = [2691,4,"T 2691 04"] act = []
exp = [2691,5,"U 2691 05"] act = []
exp = [2691,6,"V 2691 06"] act = []
exp = [2691,7,"W 2691 07"] act = []
exp = [2691,8,"@ 2691 08"] act = []
exp = [2691,9,"A 2691 09"] act = []
exp = [2691,10,"B 2691 10"] act = []
exp = [2691,11,"C 2691 11"] act = []
exp = [2691,12,"D 2691 12"] act = []
exp = [2691,13,"E 2691 13"] act = []
exp = [2691,14,"F 2691 14"] act = []
exp = [2691,15,"G 2691 15"] act = []
exp = [2692,0,"2692 05"] act = []
exp = [2692,1,"2692 15"] act = []
exp = [2692,2,"2692 25"] act = []
exp = [2692,3,"2692 35"] act = []
exp = [2692,4,"2692 45"] act = []
exp = [2692,5,"2692 55"] act = []
exp = [2692,6,"2692 65"] act = []
exp = [2692,7,"2692 75"] act = []
exp = [2693,0,20610] act = []
