exp = [256,0,6] act = [256,0,0]
exp = [256,1,1] act = [256,1,0]
exp = [256,2,2] act = [256,2,0]
exp = [256,3,3] act = [256,3,0]
exp = [257,0,5676] act = [257,0,5677]
exp = [257,1,5676] act = [257,1,5677]
exp = [257,2,5676] act = [257,2,5677]
exp = [257,3,358] act = [257,3,5677]
exp = [258,0,15] act = [258,0,10]
exp = [258,1,1] act = [258,1,10]
exp = [258,2,2] act = [258,2,10]
exp = [258,3,3] act = [258,3,10]
exp = [259,0,10] act = [259,0,0]
exp = [259,1,1] act = [259,1,0]
exp = [259,2,2] act = [259,2,0]
exp = [259,3,5] act = [259,3,0]
exp = [260,0,13] act = [260,0,0]
exp = [260,1,1] act = [260,1,0]
exp = [260,2,2] act = [260,2,0]
exp = [260,3,5] act = [260,3,0]
exp = [261,0,878888800,1200000000,4000,3000,3,0] act = [261,0,0,0,0,0,0,0]
exp = [261,1,320000000,1240000000,0,0,0,0] act = [261,1,0,0,0,0,0,0]
exp = [261,2,328900000,1175555500,0,0,0,0] act = [261,2,0,0,0,0,0,0]
exp = [261,3,3965167297,3118307296,0,0,0,0] act = [261,3,0,0,0,0,0,0]
exp = [261,4,340000000,1180000000,0,0,0,0] act = [261,4,0,0,0,0,0,0]
exp = [261,5,320000000,1170000000,1111,11111,0,0] act = [261,5,0,0,0,0,0,0]
exp = [261,6,240000000,1100000000,22222,22222,0,0] act = [261,6,0,0,0,0,0,0]
exp = [261,7,230000000,1060000000,0,0,22,0] act = [261,7,0,0,0,0,0,0]
exp = [261,8,216876900,1089859000,0,0,11,0] act = [261,8,0,0,0,0,0,0]
exp = [261,9,0,0,1111,1111,0,1] act = [261,9,0,0,0,0,0,0]
exp = [261,10,878888800,1183222780,4000,3000,3,0] act = [261,10,0,0,0,0,0,0]
exp = [261,11,320000000,971564540,0,0,0,0] act = [261,11,0,0,0,0,0,0]
exp = [261,12,328900000,1158778280,0,0,0,0] act = [261,12,0,0,0,0,0,0]
exp = [261,13,3965167297,3118303196,0,0,0,1] act = [261,13,0,0,0,0,0,0]
exp = [261,14,340000000,1179934460,0,0,0,0] act = [261,14,0,0,0,0,0,0]
exp = [261,15,320000000,1170000000,1111,11111,0,0] act = [261,15,0,0,0,0,0,0]
exp = [261,16,239999740,1100000000,22222,22222,0,0] act = [261,16,0,0,0,0,0,0]
exp = [261,17,230000000,791564540,0,0,22,0] act = [261,17,0,0,0,0,0,0]
exp = [261,18,216876900,1089859000,0,0,11,0] act = [261,18,0,0,0,0,0,0]
exp = [261,19,327851420,1175625130,1111,1111,0,0] act = [261,19,0,0,0,0,0,0]
exp = [261,20,877774419,1182174210,4000,3000,3,0] act = [261,20,0,0,0,0,0,0]
exp = [261,21,320000000,1222174210,0,0,0,0] act = [261,21,0,0,0,0,0,0]
exp = [261,22,336240049,1175555500,0,0,0,0] act = [261,22,0,0,0,0,0,0]
exp = [261,23,3965101766,3099432926,0,0,0,0] act = [261,23,0,0,0,0,0,0]
exp = [261,24,322108670,893738750,0,0,0,0] act = [261,24,0,0,0,0,0,0]
exp = [261,25,305254400,1135331460,1111,11111,0,0] act = [261,25,0,0,0,0,0,0]
exp = [261,26,237906939,579906300,22222,22222,0,0] act = [261,26,0,0,0,0,0,0]
exp = [261,27,229930100,1058947580,0,0,22,0] act = [261,27,0,0,0,0,0,0]
exp = [261,28,215627620,3473556806,0,0,11,0] act = [261,28,0,0,0,0,0,0]
exp = [261,29,236853760,319859460,1111,1111,0,0] act = [261,29,0,0,0,0,0,0]
exp = [261,30,861062740,1166380030,4000,3000,3,0] act = [261,30,0,0,0,0,0,0]
exp = [261,31,3974770686,3390708476,0,0,0,1] act = [261,31,0,0,0,0,0,0]
exp = [262,0,1] act = [262,0,0]
exp = [262,1,1] act = [262,1,0]
exp = [262,2,2] act = [262,2,0]
exp = [262,3,60] act = [262,3,0]
exp = [263,0,630] act = [263,0,0]
exp = [263,1,631] act = [263,1,0]
exp = [263,2,632] act = [263,2,0]
exp = [263,3,633] act = [263,3,0]
exp = [264,0,1] act = [264,0,0]
exp = [264,1,2] act = [264,1,0]
exp = [264,2,3] act = [264,2,0]
exp = [264,3,4] act = [264,3,0]
exp = [265,0,650] act = [265,0,10]
exp = [265,1,651] act = [265,1,0]
exp = [265,2,652] act = [265,2,0]
exp = [265,3,653] act = [265,3,0]
exp = [265,4,654] act = [265,4,0]
exp = [265,5,655] act = [265,5,0]
exp = [265,6,30] act = [265,6,0]
exp = [265,7,1] act = [265,7,0]
exp = [265,8,10] act = [265,8,0]
exp = [265,9,300] act = [265,9,0]
exp = [265,10,10] act = [265,10,0]
exp = [265,11,1800] act = [265,11,0]
exp = [265,12,12] act = [265,12,0]
exp = [265,13,13] act = [265,13,0]
exp = [265,14,14] act = [265,14,0]
exp = [265,15,30] act = [265,15,0]
exp = [265,16,16] act = [265,16,0]
exp = [265,17,17] act = [265,17,0]
exp = [265,18,18] act = [265,18,0]
exp = [265,19,19] act = [265,19,0]
exp = [265,20,20] act = [265,20,0]
exp = [265,21,5] act = [265,21,0]
exp = [265,22,45] act = [265,22,0]
exp = [265,23,23] act = [265,23,0]
exp = [265,24,24] act = [265,24,0]
exp = [265,25,25] act = [265,25,0]
exp = [265,26,26] act = [265,26,0]
exp = [265,27,27] act = [265,27,0]
exp = [265,28,28] act = [265,28,0]
exp = [265,29,300] act = [265,29,0]
exp = [265,30,600] act = [265,30,0]
exp = [265,31,31] act = [265,31,0]
exp = [266,0,6] act = [266,0,0]
exp = [266,1,1] act = [266,1,0]
exp = [266,2,2] act = [266,2,0]
exp = [266,3,3100] act = [266,3,0]
exp = [266,4,4] act = [266,4,0]
exp = [266,5,5] act = [266,5,0]
exp = [266,6,6] act = [266,6,0]
exp = [266,7,7] act = [266,7,0]
exp = [266,8,8] act = [266,8,0]
exp = [266,9,9] act = [266,9,0]
exp = [266,10,10] act = [266,10,0]
exp = [266,11,4194315] act = [266,11,0]
exp = [266,12,12] act = [266,12,0]
exp = [266,13,13] act = [266,13,0]
exp = [266,14,14] act = [266,14,0]
exp = [266,15,15] act = [266,15,0]
exp = [266,16,16] act = [266,16,0]
exp = [266,17,17] act = [266,17,0]
exp = [266,18,18] act = [266,18,0]
exp = [266,19,19] act = [266,19,0]
exp = [266,20,20] act = [266,20,0]
exp = [266,21,21] act = [266,21,0]
exp = [266,22,22] act = [266,22,0]
exp = [266,23,23] act = [266,23,0]
exp = [266,24,24] act = [266,24,0]
exp = [266,25,25] act = [266,25,0]
exp = [266,26,26] act = [266,26,0]
exp = [266,27,27] act = [266,27,0]
exp = [266,28,28] act = [266,28,0]
exp = [266,29,29] act = [266,29,0]
exp = [266,30,30] act = [266,30,0]
exp = [266,31,31] act = [266,31,0]
exp = [267,0,1648] act = [267,0,0]
exp = [267,1,1649] act = [267,1,0]
exp = [267,2,1650] act = [267,2,0]
exp = [267,3,1651] act = [267,3,0]
exp = [268,0,104] act = [268,0,0]
exp = [268,1,1665] act = [268,1,0]
exp = [268,2,2] act = [268,2,0]
exp = [268,3,3] act = [268,3,0]
exp = [269,0,105] act = [269,0,0]
exp = [269,1,1] act = [269,1,0]
exp = [269,2,2] act = [269,2,0]
exp = [269,3,3] act = [269,3,0]
exp = [270,0,9] act = [270,0,10]
exp = [270,1,17] act = [270,1,10]
exp = [270,2,18] act = [270,2,10]
exp = [270,3,19] act = [270,3,10]
exp = [270,4,20] act = [270,4,10]
exp = [270,5,21] act = [270,5,10]
exp = [270,6,22] act = [270,6,10]
exp = [270,7,23] act = [270,7,10]
exp = [270,8,24] act = [270,8,10]
exp = [270,9,25] act = [270,9,10]
exp = [270,10,32] act = [270,10,10]
exp = [270,11,33] act = [270,11,10]
exp = [270,12,34] act = [270,12,10]
exp = [270,13,35] act = [270,13,10]
exp = [270,14,36] act = [270,14,10]
exp = [270,15,37] act = [270,15,10]
exp = [271,0,10] act = [271,0,0]
exp = [271,1,1] act = [271,1,0]
exp = [271,2,2] act = [271,2,0]
exp = [271,3,161] act = [271,3,0]
exp = [271,4,162] act = [271,4,0]
exp = [271,5,163] act = [271,5,0]
exp = [271,6,164] act = [271,6,0]
exp = [271,7,165] act = [271,7,0]
exp = [271,8,166] act = [271,8,0]
exp = [271,9,167] act = [271,9,0]
exp = [271,10,32] act = [271,10,0]
exp = [271,11,33] act = [271,11,0]
exp = [271,12,34] act = [271,12,0]
exp = [271,13,35] act = [271,13,0]
exp = [271,14,36] act = [271,14,0]
exp = [271,15,37] act = [271,15,0]
exp = [272,0,10] act = [272,0,0]
exp = [272,1,1] act = [272,1,0]
exp = [272,2,2] act = [272,2,0]
exp = [272,3,3] act = [272,3,0]
exp = [272,4,15] act = [272,4,0]
exp = [272,5,14] act = [272,5,0]
exp = [272,6,13] act = [272,6,0]
exp = [272,7,12] act = [272,7,0]
exp = [272,8,11] act = [272,8,0]
exp = [272,9,26] act = [272,9,0]
exp = [272,10,16] act = [272,10,0]
exp = [272,11,17] act = [272,11,0]
exp = [272,12,17] act = [272,12,0]
exp = [272,13,17] act = [272,13,0]
exp = [272,14,17] act = [272,14,0]
exp = [272,15,17] act = [272,15,0]
exp = [273,0,273] act = [273,0,0]
exp = [273,1,1] act = [273,1,0]
exp = [273,2,2] act = [273,2,0]
exp = [273,3,3] act = [273,3,0]
exp = [273,4,4] act = [273,4,0]
exp = [273,5,5] act = [273,5,0]
exp = [273,6,6] act = [273,6,0]
exp = [273,7,7] act = [273,7,0]
exp = [275,0,1200] act = [275,0,0]
exp = [275,1,1201] act = [275,1,0]
exp = [275,2,1202] act = [275,2,0]
exp = [275,3,1203] act = [275,3,0]
exp = [276,0,13000] act = [276,0,0]
exp = [276,1,97] act = [276,1,0]
exp = [276,2,98] act = [276,2,0]
exp = [276,3,99] act = [276,3,0]
exp = [277,0,770] act = [277,0,0]
exp = [277,1,771] act = [277,1,0]
exp = [277,2,772] act = [277,2,0]
exp = [277,3,773] act = [277,3,0]
exp = [278,0,241] act = [278,0,0]
exp = [278,1,1] act = [278,1,0]
exp = [278,2,2] act = [278,2,0]
exp = [278,3,3] act = [278,3,0]
exp = [279,0,224] act = [279,0,0]
exp = [279,1,101] act = [279,1,0]
exp = [279,2,102] act = [279,2,0]
exp = [279,3,103] act = [279,3,0]
exp = [279,4,104] act = [279,4,0]
exp = [279,5,105] act = [279,5,0]
exp = [279,6,106] act = [279,6,0]
exp = [279,7,107] act = [279,7,0]
exp = [279,8,108] act = [279,8,0]
exp = [279,9,109] act = [279,9,0]
exp = [279,10,110] act = [279,10,0]
exp = [279,11,111] act = [279,11,0]
exp = [279,12,112] act = [279,12,0]
exp = [279,13,113] act = [279,13,0]
exp = [279,14,114] act = [279,14,0]
exp = [279,15,115] act = [279,15,0]
exp = [279,16,116] act = [279,16,0]
exp = [279,17,117] act = [279,17,0]
exp = [279,18,118] act = [279,18,0]
exp = [279,19,119] act = [279,19,0]
exp = [279,20,120] act = [279,20,0]
exp = [279,21,121] act = [279,21,0]
exp = [279,22,122] act = [279,22,0]
exp = [279,23,123] act = [279,23,0]
exp = [279,24,124] act = [279,24,0]
exp = [279,25,125] act = [279,25,0]
exp = [279,26,126] act = [279,26,0]
exp = [279,27,127] act = [279,27,0]
exp = [279,28,128] act = [279,28,0]
exp = [279,29,129] act = [279,29,0]
exp = [279,30,130] act = [279,30,0]
exp = [279,31,131] act = [279,31,0]
exp = [280,0,2] act = [280,0,0]
exp = [280,1,3] act = [280,1,0]
exp = [280,2,2] act = [280,2,0]
exp = [280,3,6] act = [280,3,0]
exp = [280,4,4] act = [280,4,0]
exp = [280,5,5] act = [280,5,0]
exp = [280,6,6] act = [280,6,0]
exp = [280,7,7] act = [280,7,0]
exp = [280,8,8] act = [280,8,0]
exp = [280,9,9] act = [280,9,0]
exp = [280,10,10] act = [280,10,0]
exp = [280,11,11] act = [280,11,0]
exp = [280,12,12] act = [280,12,0]
exp = [280,13,13] act = [280,13,0]
exp = [280,14,14] act = [280,14,0]
exp = [280,15,15] act = [280,15,0]
exp = [280,16,16] act = [280,16,0]
exp = [280,17,17] act = [280,17,0]
exp = [280,18,18] act = [280,18,0]
exp = [280,19,19] act = [280,19,0]
exp = [280,20,20] act = [280,20,0]
exp = [280,21,21] act = [280,21,0]
exp = [280,22,22] act = [280,22,0]
exp = [280,23,23] act = [280,23,0]
exp = [280,24,24] act = [280,24,0]
exp = [280,25,25] act = [280,25,0]
exp = [280,26,26] act = [280,26,0]
exp = [280,27,27] act = [280,27,0]
exp = [280,28,28] act = [280,28,0]
exp = [280,29,29] act = [280,29,0]
exp = [280,30,30] act = [280,30,0]
exp = [280,31,31] act = [280,31,0]
exp = [281,0,129] act = [281,0,0]
exp = [281,1,1] act = [281,1,0]
exp = [281,2,2] act = [281,2,0]
exp = [281,3,3] act = [281,3,0]
exp = [281,4,4] act = [281,4,0]
exp = [281,5,5] act = [281,5,0]
exp = [281,6,6] act = [281,6,0]
exp = [281,7,7] act = [281,7,0]
exp = [282,0,128] act = [282,0,0]
exp = [282,1,129] act = [282,1,0]
exp = [282,2,130] act = [282,2,0]
exp = [282,3,131] act = [282,3,0]
exp = [282,4,132] act = [282,4,0]
exp = [282,5,133] act = [282,5,0]
exp = [282,6,134] act = [282,6,0]
exp = [282,7,135] act = [282,7,0]
exp = [283,0,1] act = [283,0,0]
exp = [283,1,129] act = [283,1,0]
exp = [283,2,2] act = [283,2,0]
exp = [283,3,3] act = [283,3,0]
exp = [283,4,4] act = [283,4,0]
exp = [283,5,5] act = [283,5,0]
exp = [283,6,6] act = [283,6,0]
exp = [283,7,7] act = [283,7,0]
exp = [284,0,132] act = [284,0,0]
exp = [284,1,1] act = [284,1,0]
exp = [284,2,2] act = [284,2,0]
exp = [284,3,3] act = [284,3,0]
exp = [284,4,4] act = [284,4,0]
exp = [284,5,5] act = [284,5,0]
exp = [284,6,6] act = [284,6,0]
exp = [284,7,7] act = [284,7,0]
exp = [285,0,133] act = [285,0,0]
exp = [285,1,1] act = [285,1,0]
exp = [285,2,2] act = [285,2,0]
exp = [285,3,3] act = [285,3,0]
exp = [285,4,4] act = [285,4,0]
exp = [285,5,5] act = [285,5,0]
exp = [285,6,6] act = [285,6,0]
exp = [285,7,7] act = [285,7,0]
exp = [286,0,0,4,129,48,132,16,16,128,0,0,0,1,12,1,2,3,8,19,2,8,128,0,140,129] act = [286,0,0,0,0,0,0,0,0,0,0,0,0,0,0,0,0,0,0,0,0,0,0,0,0,0]
exp = [286,1,4,129,48,132,16,16,128,0,0,0,1,12,1,2,3,8,19,2,8,128,0,140,129,0] act = [286,1,0,0,0,0,0,0,0,0,0,0,0,0,0,0,0,0,0,0,0,0,0,0,0,0]
exp = [286,2,1,5,1,3,1,1,0,0,0,1,12,1,2,3,8,19,2,8,128,0,140,129,0,0] act = [286,2,0,0,0,0,0,0,0,0,0,0,0,0,0,0,0,0,0,0,0,0,0,0,0,0]
exp = [286,3,0,0,4,129,48,132,16,16,128,0,0,0,0,0,0,0,0,0,0,0,0,0,0,0] act = [286,3,0,0,0,0,0,0,0,0,0,0,0,0,0,0,0,0,0,0,0,0,0,0,0,0]
exp = [286,4,1,5,1,3,1,1,0,0,0,0,0,0,0,0,0,0,0,0,72,19,8,65,1,8] act = [286,4,0,0,0,0,0,0,0,0,0,0,0,0,0,0,0,0,0,0,0,0,0,0,0,0]
exp = [286,5,0,0,0,0,0,0,4,129,48,132,16,16,128,0,0,0,0,0,0,0,0,140,129,0] act = [286,5,0,0,0,0,0,0,0,0,0,0,0,0,0,0,0,0,0,0,0,0,0,0,0,0]
exp = [286,6,4,129,48,132,16,16,128,0,0,0,1,12,1,2,3,8,19,2,8,128,0,140,129,0] act = [286,6,0,0,0,0,0,0,0,0,0,0,0,0,0,0,0,0,0,0,0,0,0,0,0,0]
exp = [287,0,46,1,52,4,24,5,0,0,0,0,0,0,0,0,0,0] act = [287,0,0,0,0,0,0,0,0,0,0,0,0,0,0,0,0,0]
exp = [287,1,42,4,55,14,55,253,182,10,94,2,0,0,0,0,0,0] act = [287,1,0,0,0,0,0,0,0,0,0,0,0,0,0,0,0,0]
exp = [287,2,54,7,118,254,34,12,0,0,0,0,0,0,0,0,0,0] act = [287,2,0,0,0,0,0,0,0,0,0,0,0,0,0,0,0,0]
exp = [287,3,254,34,54,7,118,254,34,12,0,0,0,0,0,0,0,0] act = [287,3,0,0,0,0,0,0,0,0,0,0,0,0,0,0,0,0]
