exp = [914,0,10183] act = []
exp = [914,1,140793] act = []
exp = [914,2,4294925358] act = []
exp = [914,3,4584] act = []
exp = [914,4,4294967162] act = []
exp = [1541,0,65] act = []
exp = [1541,1,1] act = []
exp = [1541,2,2] act = []
exp = [1541,3,3] act = []
exp = [1541,4,4] act = []
exp = [1541,5,5] act = []
exp = [1541,6,6] act = []
exp = [1541,7,7] act = []
exp = [1541,8,8] act = []
exp = [1541,9,9] act = []
exp = [1541,10,16] act = []
exp = [1541,11,17] act = []
exp = [1541,12,18] act = []
exp = [1541,13,19] act = []
exp = [1541,14,20] act = []
exp = [1541,15,21] act = []
exp = [1541,16,22] act = []
exp = [1541,17,23] act = []
exp = [1541,18,24] act = []
exp = [1541,19,25] act = []
exp = [1541,20,32] act = []
exp = [1541,21,33] act = []
exp = [1541,22,34] act = []
exp = [1541,23,35] act = []
exp = [1541,24,36] act = []
exp = [1541,25,37] act = []
exp = [1541,26,38] act = []
exp = [1541,27,39] act = []
exp = [1541,28,40] act = []
exp = [1541,29,41] act = []
exp = [1541,30,48] act = []
exp = [1541,31,49] act = []
