exp = [914,0,10183] act = []
exp = [914,1,140793] act = []
exp = [914,2,4294925358] act = []
exp = [914,3,4584] act = []
exp = [914,4,4294967162] act = []
exp = [1408,0,128] act = []
exp = [1408,1,129] act = []
exp = [1408,2,130] act = []
exp = [1408,3,131] act = []
exp = [1408,4,132] act = []
exp = [1409,0,144] act = []
exp = [1409,1,145] act = []
exp = [1409,2,146] act = []
exp = [1409,3,147] act = []
exp = [1409,4,148] act = []
exp = [1410,0,10] act = []
exp = [1410,1,1] act = []
exp = [1410,2,2] act = []
exp = [1410,3,3] act = []
exp = [1410,4,4] act = []
exp = [1411,0,20709] act = []
exp = [1411,1,65534] act = []
exp = [1411,2,65532] act = []
exp = [1411,3,65530] act = []
exp = [1412,0,18] act = []
exp = [1412,1,1] act = []
exp = [1412,2,2] act = []
exp = [1412,3,3] act = []
